.Xil/Vivado-18316-DESKTOP-3JDODKJ/hw_ila_data_18/zip_work/waveform.vcd
$date
        2024-Aug-18 18:25:22
$end
$version
        Vivado v2017.4 (64-bit)
$end
$timescale
        1ps
$end
$scope module dut $end
$var reg 6 " ethernet2/eth2/mac_test0/mac_top0/mac_tx0/udp0/state [5:0] $end
$var reg 1 ( ethernet2/eth2/mac_test0/mac_top0/mac_tx0/udp0/ram_rd_en $end
$var reg 1 ) ethernet2/eth2/mac_test0/mac_top0/mac_tx0/udp0/ram_wr_en $end
$var reg 8 * ethernet2/eth2/mac_test0/mac_top0/mac_tx0/udp0/ram_wr_data [7:0] $end
$var reg 1 2 _TRIGGER $end
$var reg 1 3 _WINDOW $end
$var reg 1 4 _GAP $end
$upscope $end
$enddefinitions $end
#0
$dumpvars
b1 "
0(
0)
b0 *
02
13
04
$end
#1938
1)
b11010000 *
#1939
b10010000 *
#1940
b100000 *
#1941
b0 *
#1942
b1000000 *
#1943
b0 *
#1944
b1000000 *
#1945
b100000 *
#1946
b0 *
#1947
b10000 *
#1948
b0 *
#1953
b100000 *
#1954
b11100000 *
#1955
b1000000 *
#1956
b11010000 *
#1957
b1010000 *
#1958
b10000000 *
#1959
b1010000 *
#1960
b1110000 *
#1961
b11010000 *
#1962
b10000 *
#1963
b0 *
#1967
b100000 *
#1968
b110000 *
#1969
b11100000 *
#1970
b11010000 *
#1971
b10000000 *
#1972
b0 *
#1974
b1000000 *
#1975
b0 *
#1979
b1110000 *
#1980
b1010000 *
#1981
b10100000 *
#1982
b1110000 *
#1983
b1010000 *
#1984
b10000000 *
#1985
b1110000 *
#1986
b1010000 *
#1987
b11000000 *
#1988
b1000000 *
#1989
b1010000 *
#1990
b11000000 *
#1991
b1100000 *
#1992
b1010000 *
#1993
b11000000 *
#1994
b1100000 *
#1995
b1010000 *
#1996
b11000000 *
#1997
b1100000 *
#1998
b1010000 *
#1999
b10000000 *
#2000
b11010000 *
#2001
b110000 *
#2002
b11110000 *
#2003
b1100000 *
#2004
b10000 *
#2005
b10000000 *
#2006
b11110000 *
#2007
b110000 *
#2008
b10000 *
#2009
b11100000 *
#2010
b1100000 *
#2011
b11010000 *
#2012
b1110000 *
#2013
b100000 *
#2014
b10100000 *
#2015
b1110000 *
#2016
b1100000 *
#2017
b1000000 *
#2018
b11110000 *
#2019
b100000 *
#2020
b10000 *
#2021
b1010000 *
#2022
b1110000 *
#2023
b11000000 *
#2024
b1000000 *
#2025
b110000 *
#2026
b11010000 *
#2027
b1000000 *
#2028
b10000 *
#2029
b10000000 *
#2030
b1000000 *
#2031
b1010000 *
#2032
b0 *
#2033
b1000000 *
#2034
b1010000 *
#2035
b1000000 *
#2036
b1010000 *
#2037
b10000 *
#2038
b100000 *
#2039
b11010000 *
#2040
b10000 *
#2041
b1100000 *
#2042
0)
b0 *
#2048
b10 "
12
#2049
b100 "
#2063
b1000 "
#2123
b10000 "
#2129
1(
#2229
0(
#2232
b100000 "
#2244
b1 "
