.Xil/Vivado-383804-DESKTOP-3JDODKJ/hw_ila_data_1/zip_work/waveform.vcd
$date
        2024-Jul-31 00:44:13
$end
$version
        Vivado v2017.4 (64-bit)
$end
$timescale
        1ps
$end
$scope module dut $end
$var reg 4 " data/adc_A_data_package/state23 [3:0] $end
$var reg 4 & data/adc_A_data_package/next_state23 [3:0] $end
$var reg 12 * data/adc_A_data_package/adc_data [11:0] $end
$var reg 12 6 data/adc_A_data_package/fifo1 [11:0] $end
$var reg 12 B data/adc_A_data_package/data_fifo2_out [11:0] $end
$var reg 4 N data/adc_A_data_package/data_fifo3_in [3:0] $end
$var reg 1 R data/adc_A_data_package/rd_fifo2 $end
$var reg 8 S data/adc_A_data_package/data_cnt_fifo2 [7:0] $end
$var reg 8 [ data/adc_A_data_package/data_cnt_fifo2_use [7:0] $end
$var reg 12 c data/adc_A_data_package/cnt23 [11:0] $end
$var reg 1 o data/adc_A_data_package/rd_fifo1_1 $end
$var reg 1 p data/adc_A_data_package/rd_fifo1 $end
$var reg 1 q data/adc_A_data_package/clk_125m $end
$var reg 1 r data/adc_A_data_package/full $end
$var reg 1 s data/adc_A_data_package/empty $end
$var reg 1 t data/adc_A_data_package/wr_rst_busy $end
$var reg 1 u data/adc_A_data_package/rd_rst_busy $end
$var reg 1 v data/adc_A_data_package/wr_fifo3 $end
$var reg 1 w data/adc_A_data_package/fifo23_end $end
$var reg 1 x data/adc_A_data_package/rd_fifo3 $end
$var reg 10 y data/adc_A_data_package/data_cnt_fifo3 [9:0] $end
$var reg 4 %" data/adc_A_data_package/data_fifo3_out [3:0] $end
$var reg 1 )" data/adc_A_data_package/full3 $end
$var reg 1 *" data/adc_A_data_package/empty3 $end
$var reg 1 +" _TRIGGER $end
$var reg 1 ," _WINDOW $end
$var reg 1 -" _GAP $end
$upscope $end
$enddefinitions $end
#0
$dumpvars
b0 "
b0 &
b11111000111 *
b11111000100 6
b0 B
b0 N
0R
b0 S
b0 [
b0 c
0o
0p
1q
1r
0s
0t
0u
0v
1w
0x
b0 y
b0 %"
0)"
1*"
0+"
1,"
0-"
$end
#1
b11111000011 6
#3
b11111000110 *
b11111000100 6
#4
b11111000111 *
b11111000101 6
#6
b11111000110 *
#7
b11111000110 6
#8
b11111000101 6
#9
b11111000101 *
b11111000110 6
#10
b11111000110 *
b11111000111 6
#11
b11111000101 *
#12
b11111000110 *
#13
b11111000101 *
#14
b11111001000 6
#15
b11111000111 6
#18
b11111000110 6
#19
b11111000111 6
#21
b11111000100 *
b11111000110 6
#22
b11111000101 *
#24
b11111000100 *
b11111000101 6
#25
b11111000101 *
b11111000110 6
#26
b11111000101 6
#27
b11111000100 *
b11111000110 6
#28
b11111000110 *
b11111000101 6
#31
b11111000101 *
#32
b11111000110 *
#35
b11111001000 *
#36
b11111000111 *
b11111000100 6
#37
b11111001000 *
b11111000101 6
#38
b11111001001 *
#39
b11111000100 6
#40
b11111001000 *
b11111000101 6
#41
b11111001001 *
#42
b11111000111 *
b11111000100 6
#43
b11111001000 *
b11111000110 6
#45
b11111000111 *
#46
b11111001000 *
b11111000101 6
#47
b11111000111 *
b11111000110 6
#48
b11111000110 *
#50
b11111000111 *
b11111001000 6
#51
b11111000110 *
b11111000111 6
#52
b11111000111 *
b11111001000 6
#53
b11111000101 *
b11111001001 6
#55
b11111000111 *
b11111001000 6
#56
b11111000110 *
b11111001001 6
#57
b11111000101 *
b11111000111 6
#58
b11111000110 *
b11111001000 6
#60
b11111000101 *
b11111000111 6
#61
b11111000110 *
b11111001000 6
#62
b11111000111 6
#63
b11111000100 *
b11111000110 6
#64
b11111000101 *
#65
b11111000100 *
b11111000111 6
#66
b11111000101 *
b11111000110 6
#67
b11111000110 *
b11111000111 6
#68
b11111000101 *
b11111000101 6
#69
b11111000110 *
#70
b11111000101 *
b11111000111 6
#71
b11111000110 *
b11111000110 6
#72
b11111000101 6
#73
b11111000111 *
b11111000110 6
#75
b11111000101 6
#76
b11111000101 *
b11111000110 6
#77
b11111000110 *
#78
b11111000111 *
b11111000100 6
#79
b11111000101 6
#80
b11111001000 *
b11111000100 6
#81
b11111000111 *
b11111000101 6
#82
b11111000110 6
#83
b11111000101 6
#84
b11111000110 *
b11111000110 6
#85
b11111000101 6
#86
b11111000101 *
b11111000110 6
#88
b11111000100 *
b11111000111 6
#89
b11111000101 *
#90
b11111000100 *
#91
b11111000101 6
#92
b11111000011 *
b11111000110 6
#93
b11111000111 6
#95
b11111001000 6
#96
b11111000111 6
#99
b11111000010 *
b11111000110 6
#101
b11111000011 *
b11111000101 6
#102
b11111000010 *
#103
b11111000000 *
b11111000100 6
#104
b11111000001 *
b11111000101 6
#105
b11111000100 *
b11111000100 6
#106
b11111000010 *
#107
b11111000011 *
b11111000011 6
#112
b11111000100 *
#114
b11111000010 6
#116
b11111000101 *
b11111000011 6
#117
b11111000110 *
b11111000010 6
#118
b11111000111 *
b11111000000 6
#119
b11111001000 *
b11111000001 6
#120
b11111000110 *
b11111000100 6
#121
b11111000111 *
b11111000010 6
#122
b11111001000 *
b11111000011 6
#123
b11111000110 *
#124
b11111000111 *
#125
b11111000110 *
#126
b11111000101 *
#127
b11111000110 *
b11111000100 6
#128
b11111000100 *
#129
b11111000101 *
#131
b11111000101 6
#132
b11111000110 6
#133
b11111000100 *
b11111000111 6
#134
b11111000101 *
b11111001000 6
#135
b11111000100 *
b11111000110 6
#136
b11111000011 *
b11111000111 6
#137
b11111001000 6
#138
b11111000100 *
b11111000110 6
#139
b11111000111 6
#140
b11111000011 *
b11111000110 6
#141
b11111000101 6
#142
b11111000110 6
#143
b11111000010 *
b11111000100 6
#144
b11111000101 6
#146
b11111000001 *
#148
b11111000100 6
#149
b11111000010 *
b11111000101 6
#150
b11111000100 6
#151
b11111000001 *
b11111000011 6
#152
b11111000011 *
#153
b11111000001 *
b11111000100 6
#154
b11111000010 *
#155
b11111000011 6
#157
b11111000011 *
#158
b11111000100 *
b11111000010 6
#159
b11111000011 *
#160
b11111000100 *
#161
b11111000110 *
b11111000001 6
#163
b11111000101 *
#164
b11111000010 6
#165
b11111000110 *
#166
b11111000011 *
b11111000001 6
#167
b11111000101 *
b11111000011 6
#168
b11111000100 *
b11111000001 6
#169
b11111000010 6
#171
b11111000101 *
#172
b11111000011 6
#173
b11111000100 *
b11111000100 6
#174
b11111000011 6
#175
b11111000100 6
#176
b11111000110 6
#178
b11111000101 6
#179
b11111000010 *
#180
b11111000011 *
b11111000110 6
#181
b11111000010 *
b11111000011 6
#182
b11111000101 6
#183
b11111000100 6
#184
b11111000000 *
#185
b11111000010 *
#186
b11111000001 *
b11111000101 6
#188
b11111000010 *
b11111000100 6
#191
b11111000001 *
#193
b11111000011 *
#194
b11111000010 *
b11111000010 6
#195
b11111000011 6
#196
b11111000010 6
#197
b11111000011 *
#199
b11111000000 6
#200
b11111000100 *
b11111000010 6
#201
b11111000011 *
b11111000001 6
#202
b11111000110 *
#203
b11111000101 *
b11111000010 6
#204
b11111000110 *
#205
b11111000101 *
#206
b11111000001 6
#208
b11111000011 6
#209
b11111000010 6
#210
b11111000100 *
#211
b11111000011 *
#212
b11111000100 *
b11111000011 6
#215
b11111000100 6
#216
b11111000011 *
b11111000011 6
#217
b11111000100 *
b11111000110 6
#218
b11111000101 6
#219
b11111000110 6
#220
b11111000101 6
#221
b11111000011 *
#222
b11111000101 *
#223
b11111000100 *
#225
b11111000011 *
b11111000100 6
#226
b11111000100 *
b11111000011 6
#227
b11111000101 *
b11111000100 6
#228
b11111000100 *
#229
b11111000101 *
#231
b11111000011 6
#232
b11111000100 *
b11111000100 6
#235
b11111000110 *
#236
b11111000101 *
b11111000011 6
#237
b11111000100 *
b11111000101 6
#238
b11111000101 *
b11111000100 6
#239
b11111000110 *
#240
b11111000011 6
#241
b11111000111 *
b11111000100 6
#242
b11111000101 6
#243
b11111001000 *
b11111000100 6
#244
b11111000101 6
#247
b11111000111 *
b11111000100 6
#248
b11111001000 *
#249
b11111000111 *
#250
b11111000110 *
b11111000110 6
#251
b11111000101 6
#252
b11111000100 6
#253
b11111000101 6
#254
b11111000110 6
#255
b11111000111 *
#256
b11111000110 *
b11111000111 6
#258
b11111000101 *
b11111001000 6
#259
b11111000110 *
#262
b11111000111 6
#263
b11111001000 6
#264
b11111000101 *
b11111000111 6
#265
b11111000110 6
#269
b11111000100 *
#270
b11111000101 *
b11111000111 6
#271
b11111000110 6
#273
b11111000101 6
#274
b11111000110 6
#277
b11111000111 *
#278
b11111000101 *
#279
b11111000111 *
b11111000101 6
#280
b11111000110 *
#282
b11111001000 *
#284
b11111000110 *
b11111000100 6
#285
b11111001000 *
b11111000101 6
#287
b11111001010 *
#288
b11111001001 *
#289
b11111001010 *
#290
b11111001001 *
#292
b11111000111 6
#293
b11111000111 *
b11111000101 6
#294
b11111000111 6
#295
b11111001000 *
b11111000110 6
#296
b11111000111 *
#297
b11111001000 *
b11111001000 6
#298
b11111000111 *
#299
b11111000110 6
#300
b11111001000 6
#302
b11111000110 *
b11111001010 6
#303
b11111001001 6
#304
b11111001010 6
#305
b11111001001 6
#307
b11111000101 *
#308
b11111000100 *
b11111000111 6
#310
b11111001000 6
#311
b11111000011 *
b11111000111 6
#312
b11111001000 6
#313
b11111000001 *
b11111000111 6
#314
b11111000000 *
#315
b11111000001 *
#316
b11110111111 *
#317
b11111000110 6
#322
b11111000000 *
b11111000101 6
#323
b11111000100 6
#325
b11111000001 *
#326
b11111000010 *
b11111000011 6
#327
b11111000001 *
#328
b11111000010 *
b11111000001 6
#329
b11111000001 *
b11111000000 6
#330
b11111000010 *
b11111000001 6
#331
b11110111111 6
#332
b11111000000 *
#333
b11111000010 *
#334
b11111000001 *
#335
b11111000000 *
#337
b11111000001 *
b11111000000 6
#339
b11111000000 *
#340
b11111000001 6
#341
b11111000010 6
#342
b11111000001 *
b11111000001 6
#343
b11110111111 *
b11111000010 6
#344
b11111000000 *
b11111000001 6
#345
b11111000010 6
#346
b11110111111 *
#347
b11111000001 *
b11111000000 6
#348
b11111000010 6
#349
b11111000000 *
b11111000001 6
#350
b11111000001 *
b11111000000 6
#352
b11111000000 *
b11111000001 6
#353
b11111000010 *
#354
b11111000000 *
b11111000000 6
#355
b11111000001 *
#356
b11111000010 *
#357
b11111000001 *
b11111000001 6
#358
b11110111111 6
#359
b11111000010 *
b11111000000 6
#360
b11111000001 *
#361
b11110111111 6
#362
b11111000010 *
b11111000001 6
#364
b11111000000 6
#365
b11111000011 *
b11111000001 6
#366
b11111000100 *
#367
b11111000011 *
b11111000000 6
#368
b11111000101 *
b11111000010 6
#369
b11111000100 *
b11111000000 6
#370
b11111000110 *
b11111000001 6
#371
b11111000101 *
b11111000010 6
#372
b11111000001 6
#374
b11111000100 *
b11111000010 6
#375
b11111000001 6
#376
b11111000011 *
#377
b11111000110 *
b11111000010 6
#378
b11111000101 *
#379
b11111000100 *
#380
b11111000011 6
#381
b11111000100 6
#382
b11111000011 6
#383
b11111000101 6
#384
b11111000011 *
b11111000100 6
#385
b11111000100 *
b11111000110 6
#386
b11111000011 *
b11111000101 6
#387
b11111000100 *
#389
b11111000011 *
b11111000100 6
#391
b11111000011 6
#392
b11111000110 6
#393
b11111000101 6
#394
b11111000100 6
#395
b11111000100 *
#396
b11111000011 *
#397
b11111000100 *
#398
b11111000011 *
#399
b11111000011 6
#400
b11111000100 *
b11111000100 6
#401
b11111000011 6
#402
b11111000101 *
b11111000100 6
#403
b11111000100 *
#404
b11111000101 *
b11111000011 6
#405
b11111000110 *
#406
b11111000100 *
#407
b11111000101 *
#409
b11111000110 *
#410
b11111000101 *
b11111000100 6
#411
b11111000111 *
b11111000011 6
#412
b11111000100 6
#413
b11111000110 *
b11111000011 6
#414
b11111001000 *
#415
b11111000110 *
b11111000100 6
#417
b11111000111 *
b11111000101 6
#418
b11111000110 *
b11111000100 6
#419
b11111000100 *
b11111000101 6
#420
b11111000101 *
b11111000110 6
#421
b11111000110 *
b11111000100 6
#422
b11111000101 *
b11111000101 6
#424
b11111000100 *
b11111000110 6
#425
b11111000101 *
b11111000101 6
#426
b11111000111 6
#427
b11111000100 *
#428
b11111000110 6
#429
b11111000101 *
b11111001000 6
#430
b11111000100 *
b11111000110 6
#432
b11111000111 6
#433
b11111000110 6
#434
b11111000101 *
b11111000100 6
#435
b11111000100 *
b11111000101 6
#436
b11111000110 6
#437
b11111000011 *
b11111000101 6
#438
b11111000100 *
#439
b11111000100 6
#440
b11111000101 6
#442
b11111000101 *
b11111000100 6
#443
b11111000100 *
#444
b11111000101 *
b11111000101 6
#445
b11111000110 *
b11111000100 6
#446
b11111000101 *
#447
b11111000111 *
#448
b11111000110 *
#449
b11111000101 6
#450
b11111000111 *
b11111000100 6
#451
b11111001000 *
#452
b11111001001 *
b11111000011 6
#453
b11111000100 6
#454
b11111000111 *
#455
b11111001000 *
#457
b11111000111 *
b11111000101 6
#458
b11111000110 *
b11111000100 6
#459
b11111000111 *
b11111000101 6
#460
b11111000110 6
#461
b11111000110 *
b11111000101 6
#462
b11111000101 *
b11111000111 6
#463
b11111000110 6
#464
b11111000110 *
#465
b11111000111 6
#466
b11111000101 *
b11111001000 6
#467
b11111001001 6
#468
b11111000110 *
#469
b11111000101 *
b11111000111 6
#470
b11111001000 6
#471
b11111000100 *
#472
b11111000101 *
b11111000111 6
#473
b11111000110 6
#474
b11111000100 *
b11111000111 6
#476
b11111000110 6
#477
b11111000101 6
#479
b11111000011 *
b11111000110 6
#481
b11111000101 6
#482
b11111000100 *
#483
b11111000011 *
b11111000110 6
#484
b11111000100 *
b11111000101 6
#485
b11111000011 *
#486
b11111000100 *
b11111000100 6
#487
b11111000101 *
b11111000101 6
#489
b11111000100 6
#490
b11111000110 *
#491
b11111000101 *
#492
b11111000111 *
#494
b11111001000 *
b11111000011 6
#495
b11111000111 *
#497
b11111000110 *
b11111000100 6
#498
b11111000101 *
b11111000011 6
#499
b11111000100 6
#500
b11111000011 6
#501
b11111000100 6
#502
b11111000101 6
#503
b11111000011 *
#504
b11111000101 *
#505
b11111000110 6
#506
b11111000100 *
b11111000101 6
#507
b11111000101 *
b11111000111 6
#508
b11111000100 *
#509
b11111001000 6
#510
b11111000111 6
#512
b11111000101 *
b11111000110 6
1+"
#513
b11111000100 *
b11111000101 6
#515
b11111000011 *
#518
b11111000011 6
#519
b11111000101 6
#520
b11111000100 *
#521
b11111000101 *
b11111000100 6
#522
b11111000011 *
b11111000101 6
#523
b11111000100 6
#524
b11111000010 *
#526
b11111000100 *
#527
b11111000101 6
#528
b11111000101 *
b11111000100 6
#530
b11111000011 6
#531
b11111000100 *
#532
b11111000101 *
#533
b11111000110 *
#534
b11111000101 *
#535
b11111000110 *
b11111000100 6
#536
b11111000111 *
b11111000101 6
#537
b11111000101 *
b11111000011 6
#538
b11111000110 *
#539
b11111000101 *
b11111000010 6
#540
b11111000100 *
#541
b11111000101 *
b11111000100 6
#542
b11111000100 *
#543
b11111000101 6
#545
b11111000011 *
#546
b11111000100 *
b11111000100 6
#547
b11111000101 6
#548
b11111000011 *
b11111000110 6
#549
b11111000010 *
b11111000101 6
#550
b11111000011 *
b11111000110 6
#551
b11111000111 6
#552
b11111000101 6
#553
b11111000110 6
#554
b11111000101 6
#555
b11111000100 6
#556
b11111000010 *
b11111000101 6
#557
b11111000001 *
b11111000100 6
#558
b11111000010 *
#559
b11111000011 *
#560
b11111000011 6
#561
b11111000010 *
b11111000100 6
#563
b11111000011 6
#564
b11111000011 *
b11111000010 6
#565
b11111000011 6
#566
b11111000100 *
#570
b11111000101 *
#571
b11111000010 6
#572
b11111000111 *
b11111000001 6
#573
b11111000110 *
b11111000010 6
#574
b11111000101 *
b11111000011 6
#575
b11111001000 *
#576
b11111000010 6
#579
b11111000011 6
#581
b11111000100 6
#582
b11111000111 *
#584
b11111001000 *
#585
b11111000101 6
#587
b11111000111 6
#588
b11111000110 *
b11111000110 6
#589
b11111000111 *
b11111000101 6
#590
b11111001000 6
#593
b11111000110 *
#594
b11111000111 *
#595
b11111000110 *
#597
b11111000111 *
b11111000111 6
#598
b11111000110 *
#599
b11111001000 6
#600
b11111000111 *
#601
b11111000110 *
#603
b11111001000 *
b11111000110 6
#604
b11111000111 6
#605
b11111000111 *
#607
b11111001000 *
#608
b11111000111 *
b11111000110 6
#609
b11111001000 *
b11111000111 6
#610
b11111000110 6
#612
b11111000111 6
#613
b11111001001 *
b11111000110 6
#615
b11111001000 *
b11111000111 6
#616
b11111001010 *
b11111000110 6
#617
b11111001001 *
#618
b11111001010 *
b11111001000 6
#620
b11111000111 6
#621
b11111001001 *
#622
b11111001010 *
b11111001000 6
#623
b11111001001 *
b11111000111 6
#624
b11111001000 6
#628
b11111001000 *
b11111001001 6
#630
b11111001001 *
b11111001000 6
#631
b11111001000 *
b11111001010 6
#632
b11111001001 6
#633
b11111001010 6
#634
b11111000111 *
#636
b11111001001 6
#637
b11111001000 *
b11111001010 6
#638
b11111000111 *
b11111001001 6
#639
b11111001000 *
#640
b11111000111 *
#643
b11111001000 6
#644
b11111000110 *
#645
b11111000111 *
b11111001001 6
#646
b11111000110 *
b11111001000 6
#647
b11111000101 *
#648
b11111000111 *
#649
b11111000111 6
#652
b11111001000 6
#653
b11111000111 6
#654
b11111001000 *
b11111001000 6
#655
b11111000111 6
#656
b11111001001 *
#657
b11111001010 *
#658
b11111001001 *
#659
b11111000110 6
#660
b11111000111 6
#661
b11111001010 *
b11111000110 6
#662
b11111001001 *
b11111000101 6
#663
b11111001000 *
b11111000111 6
#664
b11111001001 *
#665
b11111001010 *
#666
b11111001000 *
#667
b11111001001 *
#668
b11111000111 *
#669
b11111001000 6
#671
b11111001001 6
#672
b11111001010 6
#673
b11111000110 *
b11111001001 6
#674
b11111000111 *
#675
b11111000110 *
#676
b11111000100 *
b11111001010 6
#677
b11111001001 6
#678
b11111001000 6
#679
b11111000101 *
b11111001001 6
#680
b11111001010 6
#681
b11111000100 *
b11111001000 6
#682
b11111000101 *
b11111001001 6
#683
b11111000011 *
b11111000111 6
#685
b11111000100 *
#686
b11111000011 *
#687
b11111000010 *
#688
b11111000110 6
#689
b11111000011 *
b11111000111 6
#690
b11111000110 6
#691
b11111000100 6
#693
b11111000100 *
#694
b11111000101 6
#696
b11111000100 6
#697
b11111000101 *
b11111000101 6
#698
b11111000100 *
b11111000011 6
#699
b11111000110 *
#700
b11111000101 *
b11111000100 6
#701
b11111000111 *
b11111000011 6
#702
b11111000110 *
b11111000010 6
#704
b11111000101 *
b11111000011 6
#705
b11111000110 *
#707
b11111000101 *
#708
b11111000100 6
#710
b11111000100 *
#712
b11111000101 6
#713
b11111000011 *
b11111000100 6
#714
b11111000110 6
#715
b11111000101 6
#716
b11111000111 6
#717
b11111000100 *
b11111000110 6
#718
b11111000011 *
#719
b11111000101 6
#720
b11111000010 *
b11111000110 6
#722
b11111000101 6
#723
b11111000011 *
#724
b11111000010 *
#725
b11111000100 6
#728
b11111000011 6
#729
b11111000001 *
#730
b11111000010 *
#732
b11111000100 6
#733
b11111000011 6
#735
b11111000001 *
b11111000010 6
#736
b11111000010 *
#737
b11111000011 *
#738
b11111000010 *
b11111000011 6
#739
b11111000011 *
b11111000010 6
#740
b11111000101 *
#741
b11111000011 *
#742
b11111000101 *
#744
b11111000100 *
b11111000001 6
#745
b11111000010 6
#746
b11111000010 *
#747
b11111000011 *
#748
b11111000010 *
#750
b11111000011 *
b11111000001 6
#751
b11111000001 *
b11111000010 6
#752
b11111000010 *
b11111000011 6
#753
b11111000000 *
b11111000010 6
#754
b11111000011 6
#755
b11110111111 *
b11111000101 6
#756
b11110111110 *
b11111000011 6
#757
b11111000101 6
#759
b11110111101 *
b11111000100 6
#760
b11110111100 *
#761
b11110111101 *
b11111000010 6
#762
b11110111011 *
b11111000011 6
#763
b11111000010 6
#764
b11110111010 *
#765
b11111000011 6
#766
b11111000001 6
#767
b11110111011 *
b11111000010 6
#768
b11110111100 *
b11111000000 6
#769
b11110111011 *
#770
b11110111111 6
#771
b11110111110 6
#773
b11110111100 *
#774
b11110111010 *
b11110111101 6
#775
b11110111011 *
b11110111100 6
#776
b11110111100 *
b11110111101 6
#777
b11110111011 6
#778
b11110111101 *
#779
b11110111111 *
b11110111010 6
#781
b11110111101 *
#782
b11111000000 *
b11110111011 6
#783
b11111000010 *
b11110111100 6
#784
b11111000001 *
b11110111011 6
#788
b11110111111 *
b11110111100 6
#789
b11111000001 *
b11110111010 6
#790
b11111000000 *
b11110111011 6
#791
b11111000001 *
b11110111100 6
#793
b11110111101 6
#794
b11111000000 *
b11110111111 6
#795
b11111000001 *
#796
b11111000000 *
b11110111101 6
#797
b11111000000 6
#798
b11111000010 6
#799
b11111000001 6
#800
b11111000001 *
#803
b11111000000 *
b11110111111 6
#804
b11111000001 6
#805
b11111000001 *
b11111000000 6
#806
b11111000001 6
#809
b11111000000 6
#810
b11111000001 6
#811
b11111000000 6
#813
b11111000010 *
#814
b11111000001 *
#815
b11111000011 *
b11111000001 6
#817
b11111000010 *
#818
b11111000000 6
#819
b11111000101 *
#820
b11111000100 *
b11111000001 6
#821
b11111000101 *
#822
b11111000010 *
#823
b11111000111 *
#824
b11111000100 *
#825
b11111000111 *
#826
b11111000110 *
#828
b11111000010 6
#829
b11111000101 *
b11111000001 6
#830
b11111000011 6
#831
b11111000110 *
#832
b11111000010 6
#833
b11111000101 *
#834
b11111000110 *
b11111000101 6
#835
b11111000100 6
#836
b11111000101 *
b11111000101 6
#837
b11111000110 *
b11111000010 6
#838
b11111000101 *
b11111000111 6
#839
b11111000110 *
b11111000100 6
#840
b11111000111 6
#841
b11111000101 *
b11111000110 6
#844
b11111000100 *
b11111000101 6
#846
b11111000110 6
#848
b11111000101 *
b11111000101 6
#849
b11111000011 *
b11111000110 6
#850
b11111000100 *
#851
b11111000101 *
b11111000101 6
#852
b11111000110 6
#853
b11111000100 *
b11111000101 6
#854
b11111000110 6
#855
b11111000101 *
#856
b11111000101 6
#859
b11111000100 6
#861
b11111000110 *
#862
b11111000101 *
#863
b11111000111 *
b11111000101 6
#864
b11111001000 *
b11111000011 6
#865
b11111000111 *
b11111000100 6
#866
b11111001000 *
b11111000101 6
#868
b11111000100 6
#869
b11111000111 *
#870
b11111001000 *
b11111000101 6
#871
b11111000110 *
#873
b11111000111 *
#874
b11111000110 *
#876
b11111000110 6
#877
b11111000101 6
#878
b11111000111 6
#879
b11111001000 6
#880
b11111000111 6
#881
b11111000101 *
b11111001000 6
#884
b11111000111 6
#885
b11111000100 *
b11111001000 6
#886
b11111000110 6
#888
b11111000101 *
b11111000111 6
#889
b11111000100 *
b11111000110 6
#893
b11111000101 *
#894
b11111000011 *
#895
b11111000010 *
#896
b11111000011 *
b11111000101 6
#897
b11111000010 *
#900
b11111000100 6
#901
b11111000011 *
#903
b11111000100 *
b11111000101 6
#904
b11111000100 6
#905
b11111000010 *
#906
b11111000110 *
#907
b11111000101 *
#908
b11111000110 *
b11111000101 6
#909
b11111000101 *
b11111000011 6
#910
b11111000010 6
#911
b11111000011 6
#912
b11111000010 6
#914
b11111000100 *
#915
b11111000101 *
#916
b11111000100 *
b11111000011 6
#918
b11111000100 6
#920
b11111000011 *
b11111000010 6
#921
b11111000100 *
b11111000110 6
#922
b11111000010 *
b11111000101 6
#923
b11111000011 *
b11111000110 6
#924
b11111000101 6
#926
b11111000010 *
#927
b11111000011 *
#929
b11111000100 6
#930
b11111000100 *
b11111000101 6
#931
b11111000011 *
b11111000100 6
#932
b11111000100 *
#934
b11111000101 *
#935
b11111000011 6
#936
b11111000100 *
b11111000100 6
#937
b11111000101 *
b11111000010 6
#938
b11111000011 *
b11111000011 6
#939
b11111000110 *
#941
b11111000010 6
#942
b11111000011 6
#943
b11111000111 *
#945
b11111001000 *
b11111000100 6
#946
b11111000111 *
b11111000011 6
#947
b11111001001 *
b11111000100 6
#948
b11111001000 *
#949
b11111001010 *
b11111000101 6
#951
b11111001001 *
b11111000100 6
#952
b11111001010 *
b11111000101 6
#953
b11111001000 *
b11111000011 6
#954
b11111001001 *
b11111000110 6
#955
b11111001000 *
#957
b11111001001 *
#958
b11111000111 *
b11111000111 6
#959
b11111001000 *
#960
b11111001000 6
#961
b11111000111 *
b11111000111 6
#962
b11111001001 6
#963
b11111001000 6
#964
b11111001000 *
b11111001010 6
#965
b11111000111 *
#966
b11111001001 6
#967
b11111001000 *
b11111001010 6
#968
b11111000111 *
b11111001000 6
#969
b11111001001 6
#970
b11111000110 *
b11111001000 6
#971
b11111000101 *
#972
b11111001001 6
#973
b11111000111 6
#974
b11111000100 *
b11111001000 6
#976
b11111000111 6
#977
b11111000010 *
#979
b11111000000 *
b11111001000 6
#980
b11111000111 6
#982
b11110111111 *
b11111001000 6
#983
b11111000000 *
b11111000111 6
#984
b11111000001 *
#985
b11111000110 6
#986
b11111000101 6
#987
b11111000010 *
#989
b11111000011 *
b11111000100 6
#992
b11111000010 *
b11111000010 6
#994
b11111000000 6
#996
b11111000001 *
#997
b11111000010 *
b11110111111 6
#998
b11111000001 *
b11111000000 6
#999
b11111000010 *
b11111000001 6
#1001
b11111000001 *
#1002
b11111000000 *
b11111000010 6
#1003
b11111000001 *
#1004
b11111000011 6
#1005
b11111000010 *
#1007
b11111000001 *
b11111000010 6
#1008
b11111000000 *
#1009
b11111000001 *
#1010
b11111000011 *
#1011
b11111000010 *
b11111000001 6
#1012
b11111000001 *
b11111000010 6
#1013
b11111000001 6
#1014
b11111000011 *
b11111000010 6
#1015
b11111000010 *
#1016
b11111000011 *
b11111000001 6
#1017
b11111000001 *
b11111000000 6
#1018
b11111000010 *
b11111000001 6
#1019
b11111000001 *
#1020
b11111000010 *
b11111000010 6
#1021
b11111000011 *
#1022
b11111000100 *
b11111000001 6
#1023
b11111000010 *
b11111000000 6
