.Xil/Vivado-394996-DESKTOP-3JDODKJ/hw_ila_data_3/zip_work/waveform.vcd
$date
        2024-Aug-02 20:45:07
$end
$version
        Vivado v2017.4 (64-bit)
$end
$timescale
        1ps
$end
$scope module dut $end
$var reg 4 " data/adc_B_data_package/state23 [3:0] $end
$var reg 4 & data/adc_B_data_package/next_state23 [3:0] $end
$var reg 12 * data/adc_B_data_package/adc_data [11:0] $end
$var reg 12 6 data/adc_B_data_package/fifo1 [11:0] $end
$var reg 12 B data/adc_B_data_package/data_fifo2_out [11:0] $end
$var reg 4 N data/adc_B_data_package/data_fifo3_in [3:0] $end
$var reg 1 R data/adc_B_data_package/rd_fifo2 $end
$var reg 8 S data/adc_B_data_package/data_cnt_fifo2 [7:0] $end
$var reg 8 [ data/adc_B_data_package/data_cnt_fifo2_use [7:0] $end
$var reg 12 c data/adc_B_data_package/cnt23 [11:0] $end
$var reg 1 o data/adc_B_data_package/rd_fifo1_1 $end
$var reg 1 p data/adc_B_data_package/rd_fifo1 $end
$var reg 1 q data/adc_B_data_package/clk_125m $end
$var reg 1 r data/adc_B_data_package/full $end
$var reg 1 s data/adc_B_data_package/empty $end
$var reg 1 t data/adc_B_data_package/wr_rst_busy $end
$var reg 1 u data/adc_B_data_package/rd_rst_busy $end
$var reg 1 v data/adc_B_data_package/wr_fifo3 $end
$var reg 1 w data/adc_B_data_package/fifo23_end $end
$var reg 1 x data/adc_B_data_package/rd_fifo3 $end
$var reg 10 y data/adc_B_data_package/data_cnt_fifo3 [9:0] $end
$var reg 4 %" data/adc_B_data_package/data_fifo3_out [3:0] $end
$var reg 1 )" data/adc_B_data_package/full3 $end
$var reg 1 *" data/adc_B_data_package/empty3 $end
$var reg 1 +" _TRIGGER $end
$var reg 1 ," _WINDOW $end
$var reg 1 -" _GAP $end
$upscope $end
$enddefinitions $end
#0
$dumpvars
b0 "
b0 &
b11111010101 *
b11111010010 6
b11110111001 B
b0 N
0R
b0 S
b0 [
b0 c
0o
0p
1q
1r
0s
0t
0u
0v
1w
0x
b0 y
b1001 %"
0)"
1*"
0+"
1,"
0-"
$end
#4
b11111010100 *
b11111010011 6
#5
b11111010101 *
b11111010010 6
#6
b11111010011 6
#7
b11111010100 6
#8
b11111010100 *
b11111010011 6
#9
b11111010100 6
#10
b11111010101 *
b11111010101 6
#11
b11111010100 *
b11111010100 6
#12
b11111010101 6
#13
b11111010101 *
b11111010111 6
#14
b11111010101 6
#15
b11111010100 *
#18
b11111010101 *
#19
b11111010100 6
#20
b11111010100 *
b11111010101 6
#21
b11111010101 *
#22
b11111010100 *
#23
b11111010110 *
b11111010100 6
#24
b11111010101 *
#25
b11111010101 6
#26
b11111010100 6
#28
b11111010101 6
#29
b11111010110 *
#30
b11111010100 6
#31
b11111010101 *
#32
b11111010110 *
#33
b11111010101 6
#34
b11111010111 *
#35
b11111011000 *
b11111010100 6
#36
b11111010101 6
#37
b11111011001 *
b11111010100 6
#38
b11111010110 6
#39
b11111010101 6
#40
b11111011000 *
#42
b11111010111 *
#44
b11111011000 *
b11111010110 6
#45
b11111010111 *
#46
b11111010101 6
#47
b11111010110 6
#49
b11111010111 6
#50
b11111011000 6
#51
b11111010110 *
#52
b11111010111 *
b11111011001 6
#55
b11111011000 6
#56
b11111010110 *
#57
b11111010111 6
#59
b11111010101 *
b11111011000 6
#60
b11111010111 6
#61
b11111010110 *
#64
b11111010101 *
#66
b11111010100 *
b11111010110 6
#67
b11111010101 *
b11111010111 6
#69
b11111010110 *
#70
b11111010101 *
#71
b11111010110 *
b11111010110 6
#74
b11111010111 *
b11111010101 6
#76
b11111011000 *
b11111010110 6
#77
b11111010111 *
#79
b11111010101 6
#80
b11111010110 *
#81
b11111010111 *
b11111010100 6
#82
b11111010101 6
#83
b11111010110 *
#84
b11111010110 6
#85
b11111010101 *
b11111010101 6
#86
b11111010110 *
b11111010110 6
#87
b11111010101 *
#89
b11111010110 *
b11111010111 6
#90
b11111010100 *
#91
b11111010101 *
b11111011000 6
#92
b11111010100 *
b11111010111 6
#95
b11111010110 6
#96
b11111010111 6
#98
b11111010101 *
b11111010110 6
#100
b11111010101 6
#101
b11111010100 *
b11111010110 6
#102
b11111010011 *
b11111010101 6
#104
b11111010100 *
b11111010110 6
#105
b11111010100 6
#106
b11111010101 *
b11111010101 6
#107
b11111010100 6
#111
b11111010110 *
#112
b11111010101 *
#113
b11111010110 *
b11111010101 6
#114
b11111010111 *
#115
b11111011000 *
#116
b11111010111 *
b11111010100 6
#117
b11111010011 6
#118
b11111010110 *
#119
b11111010111 *
b11111010100 6
#121
b11111010101 *
b11111010101 6
#122
b11111010100 *
#125
b11111010101 *
#126
b11111010011 *
b11111010110 6
#127
b11111010100 *
b11111010101 6
#128
b11111010011 *
b11111010110 6
#129
b11111010001 *
b11111010111 6
#130
b11111010011 *
b11111011000 6
#131
b11111010010 *
b11111010111 6
#133
b11111010011 *
b11111010110 6
#134
b11111010010 *
b11111010111 6
#136
b11111010101 6
#137
b11111010100 6
#138
b11111010000 *
#139
b11111010001 *
#140
b11111010010 *
b11111010101 6
#141
b11111010011 6
#142
b11111010100 6
#143
b11111010001 *
b11111010011 6
#144
b11111010010 *
b11111010001 6
#145
b11111010011 6
#146
b11111010010 6
#147
b11111010011 *
#148
b11111010011 6
#149
b11111010100 *
b11111010010 6
#150
b11111010011 *
#151
b11111010010 *
#152
b11111010111 *
#153
b11111010101 *
b11111010000 6
#154
b11111010001 6
#155
b11111010110 *
b11111010010 6
#158
b11111010100 *
b11111010001 6
#159
b11111010101 *
b11111010010 6
#161
b11111010100 *
#162
b11111010101 *
b11111010011 6
#163
b11111010100 *
#164
b11111010100 6
#165
b11111010011 6
#166
b11111010011 *
b11111010010 6
#167
b11111010100 *
b11111010111 6
#168
b11111010011 *
b11111010101 6
#170
b11111010110 6
#172
b11111010100 *
#173
b11111010011 *
b11111010100 6
#174
b11111010101 6
#175
b11111010100 *
#176
b11111010011 *
b11111010100 6
#177
b11111010101 6
#178
b11111010100 6
#181
b11111010011 6
#182
b11111010010 *
b11111010100 6
#183
b11111010011 *
b11111010011 6
#184
b11111010100 *
#187
b11111010011 *
b11111010100 6
#188
b11111010101 *
b11111010011 6
#189
b11111010100 *
#190
b11111010101 *
b11111010100 6
#191
b11111010110 *
b11111010011 6
#193
b11111010111 *
#195
b11111010110 *
#197
b11111010010 6
#198
b11111010011 6
#199
b11111010100 6
#201
b11111010101 *
#202
b11111010100 *
b11111010011 6
#203
b11111010101 *
b11111010101 6
#204
b11111010100 6
#205
b11111010101 6
#206
b11111010110 6
#207
b11111010100 *
#208
b11111010111 6
#210
b11111010110 6
#213
b11111010011 *
#215
b11111010100 *
#216
b11111010101 6
#217
b11111010100 6
#218
b11111010011 *
b11111010101 6
#219
b11111010100 *
#221
b11111010011 *
#222
b11111010100 *
b11111010100 6
#224
b11111010101 *
#225
b11111010100 *
#226
b11111010101 *
#228
b11111010011 6
#229
b11111010110 *
#230
b11111010100 6
#232
b11111010111 *
#233
b11111010011 6
#234
b11111010110 *
b11111010100 6
#235
b11111010111 *
#236
b11111010110 *
b11111010011 6
#237
b11111010100 6
#239
b11111010101 6
#240
b11111010100 6
#241
b11111010101 *
b11111010101 6
#243
b11111010110 *
#244
b11111010101 *
b11111010110 6
#247
b11111010111 6
#248
b11111010100 *
#249
b11111010101 *
b11111010110 6
#250
b11111010111 6
#251
b11111010011 *
b11111010110 6
#252
b11111010101 *
#253
b11111010100 *
#255
b11111010011 *
#256
b11111010100 *
b11111010101 6
#257
b11111010011 *
#258
b11111010110 6
#259
b11111010100 *
b11111010101 6
#260
b11111010011 *
#261
b11111010100 *
#262
b11111010101 *
#263
b11111010100 *
b11111010100 6
#264
b11111010101 6
#265
b11111010101 *
#266
b11111010011 6
#267
b11111010110 *
b11111010101 6
#268
b11111010100 6
#270
b11111010111 *
b11111010011 6
#271
b11111010110 *
b11111010100 6
#272
b11111011000 *
b11111010011 6
#273
b11111010111 *
#274
b11111010110 *
b11111010100 6
#275
b11111010011 6
#276
b11111010100 6
#277
b11111010101 6
#278
b11111010100 *
b11111010100 6
#279
b11111010101 *
#280
b11111010011 *
b11111010101 6
#281
b11111010100 *
#282
b11111010101 *
b11111010110 6
#283
b11111010011 *
#285
b11111010100 *
b11111010111 6
#286
b11111010010 *
b11111010110 6
#287
b11111010011 *
b11111011000 6
#288
b11111010001 *
b11111010111 6
#289
b11111010110 6
#291
b11111010010 *
#292
b11111010001 *
#293
b11111010000 *
b11111010100 6
#294
b11111010001 *
b11111010101 6
#295
b11111010000 *
b11111010011 6
#296
b11111010100 6
#297
b11111010001 *
b11111010101 6
#298
b11111010000 *
b11111010011 6
#300
b11111010001 *
b11111010100 6
#301
b11111010010 6
#302
b11111010010 *
b11111010011 6
#303
b11111010001 *
b11111010001 6
#304
b11111010000 *
#305
b11111010010 *
#306
b11111010010 6
#307
b11111010011 *
b11111010001 6
#308
b11111010001 *
b11111010000 6
#309
b11111010101 *
b11111010001 6
#310
b11111010000 6
#311
b11111010100 *
#312
b11111010001 6
#313
b11111010011 *
b11111010000 6
#315
b11111010001 6
#317
b11111010010 6
#318
b11111010001 *
b11111010001 6
#319
b11111010010 *
b11111010000 6
#320
b11111010001 *
b11111010010 6
#322
b11111010000 *
b11111010011 6
#323
b11111010001 6
#324
b11111010001 *
b11111010101 6
#325
b11111001111 *
#326
b11111010100 6
#328
b11111001110 *
b11111010011 6
#333
b11111010001 6
#334
b11111001111 *
b11111010010 6
#335
b11111001110 *
b11111010001 6
#337
b11111001101 *
b11111010000 6
#339
b11111010001 6
#340
b11111001111 6
#342
b11111001110 *
#343
b11111001111 *
b11111001110 6
#345
b11111010000 *
#346
b11111001111 *
#347
b11111010000 *
#348
b11111010010 *
#349
b11111010001 *
b11111001111 6
#350
b11111010010 *
b11111001110 6
#352
b11111010011 *
b11111001101 6
#353
b11111010010 *
#354
b11111010001 *
#356
b11111010010 *
#357
b11111010001 *
b11111001110 6
#358
b11111001111 6
#359
b11111010010 *
#360
b11111010000 6
#361
b11111010001 *
b11111001111 6
#362
b11111010010 *
b11111010000 6
#363
b11111010011 *
b11111010010 6
#364
b11111010010 *
b11111010001 6
#365
b11111010001 *
b11111010010 6
#366
b11111010010 *
#367
b11111010000 *
b11111010011 6
#368
b11111010010 *
b11111010010 6
#369
b11111010001 6
#371
b11111010001 *
b11111010010 6
#372
b11111010010 *
b11111010001 6
#374
b11111010010 6
#375
b11111010001 *
#376
b11111010011 *
b11111010001 6
#377
b11111010010 *
b11111010010 6
#378
b11111010011 6
#379
b11111010011 *
b11111010010 6
#380
b11111010001 6
#381
b11111010100 *
b11111010010 6
#382
b11111010000 6
#383
b11111010010 6
#384
b11111010101 *
#386
b11111010100 *
b11111010001 6
#387
b11111010111 *
b11111010010 6
#388
b11111010110 *
#389
b11111011000 *
#390
b11111010111 *
b11111010001 6
#391
b11111011000 *
b11111010011 6
#392
b11111010111 *
b11111010010 6
#394
b11111010011 6
#396
b11111010110 *
b11111010100 6
#398
b11111010111 *
#399
b11111010101 6
#400
b11111010110 *
#401
b11111010100 6
#402
b11111010111 6
#403
b11111010110 6
#404
b11111010101 *
b11111011000 6
#405
b11111010111 6
#406
b11111010110 *
b11111011000 6
#407
b11111010111 *
b11111010111 6
#408
b11111010110 *
#411
b11111010110 6
#413
b11111010101 *
b11111010111 6
#415
b11111010110 *
b11111010110 6
#416
b11111010101 *
#419
b11111010111 *
b11111010101 6
#420
b11111010110 *
#421
b11111010111 *
b11111010110 6
#422
b11111011000 *
b11111010111 6
#423
b11111010110 6
#424
b11111010111 *
#425
b11111011000 *
#426
b11111011010 *
#427
b11111011000 *
#428
b11111011001 *
b11111010101 6
#429
b11111011010 *
#430
b11111010110 6
#431
b11111011001 *
b11111010101 6
#433
b11111011000 *
#434
b11111011001 *
b11111010111 6
#435
b11111010110 6
#436
b11111011000 *
b11111010111 6
#437
b11111011000 6
#438
b11111010111 *
#439
b11111011000 *
b11111010111 6
#440
b11111010111 *
b11111011000 6
#441
b11111011010 6
#442
b11111010110 *
b11111011000 6
#443
b11111011001 6
#444
b11111010111 *
b11111011010 6
#445
b11111010101 *
#446
b11111011001 6
#447
b11111010100 *
#448
b11111011000 6
#449
b11111010110 *
b11111011001 6
#450
b11111010100 *
#451
b11111011000 6
#452
b11111010011 *
#453
b11111010001 *
b11111010111 6
#454
b11111010010 *
b11111011000 6
#455
b11111010111 6
#457
b11111010001 *
b11111010110 6
#459
b11111010111 6
#460
b11111010101 6
#461
b11111010010 *
#462
b11111010001 *
b11111010100 6
#463
b11111010010 *
#464
b11111010110 6
#465
b11111010100 *
b11111010100 6
#467
b11111010011 6
#468
b11111010011 *
b11111010001 6
#469
b11111010010 6
#472
b11111010001 6
#473
b11111010100 *
#475
b11111010011 *
#476
b11111010010 *
b11111010010 6
#477
b11111010001 6
#478
b11111010010 6
#480
b11111010100 6
#483
b11111010001 *
b11111010011 6
#486
b11111010000 *
#487
b11111010001 *
#488
b11111001111 *
b11111010100 6
#489
b11111010000 *
#490
b11111010011 6
#491
b11111010010 6
#493
b11111001111 *
#494
b11111010000 *
#495
b11111010001 *
#497
b11111010000 *
#498
b11111010001 6
#499
b11111001111 *
#500
b11111010010 *
#501
b11111010000 6
#502
b11111010001 6
#503
b11111010011 *
b11111001111 6
#504
b11111010000 6
#506
b11111010100 *
#507
b11111001101 *
#508
b11110011011 *
b11111001111 6
#509
b11100101000 *
b11111010000 6
#510
b11011001101 *
b11111010001 6
#511
b11001110000 *
#512
b11000001111 *
b11111010000 6
1+"
#513
b10111000010 *
#514
b10101111001 *
b11111001111 6
#515
b10100110111 *
b11111010010 6
#516
b10100000010 *
#517
b10011010000 *
#518
b10010101100 *
b11111010011 6
1o
1p
#519
b10010001001 *
#520
b10001101101 *
#521
b10001011010 *
b11111010100 6
#522
b10001001001 *
b11111001101 6
#523
b10000111111 *
b11110011011 6
#524
b10000111001 *
b11100101000 6
#525
b10000110101 *
b11011001101 6
#526
b10000110111 *
b11001110000 6
#527
b10000110110 *
b11000001111 6
#528
b10000111110 *
b10111000010 6
#529
b10001000110 *
b10101111001 6
#530
b10001001111 *
b10100110111 6
#531
b10001011011 *
b10100000010 6
#532
b10001100101 *
b10011010000 6
#533
b10001110101 *
b10010101100 6
#534
b10010000011 *
b10010001001 6
#535
b10010010010 *
b10001101101 6
#536
b10010100101 *
b10001011010 6
#537
b10010110101 *
b10001001001 6
#538
b10011001000 *
b10000111111 6
#539
b10011011001 *
b10000111001 6
#540
b10011101100 *
b10000110101 6
#541
b10011111110 *
b10000110111 6
#542
b10100010000 *
b10000110110 6
#543
b10100100100 *
b10000111110 6
#544
b10100111001 *
b10001000110 6
#545
b10101001011 *
b10001001111 6
#546
b10101011010 *
b10001011011 6
#547
b10101101100 *
b10001100101 6
#548
b10101111110 *
b10001110101 6
#549
b10110001111 *
b10010000011 6
#550
b10110100001 *
b10010010010 6
#551
b10110110100 *
b10010100101 6
#552
b10111001101 *
b10010110101 6
#553
b10111010101 *
b10011001000 6
#554
b10111101010 *
b10011011001 6
#555
b10111111001 *
b10011101100 6
#556
b11000000100 *
b10011111110 6
#557
b11000011000 *
b10100010000 6
#558
b11000100010 *
b10100100100 6
#559
b11000110001 *
b10100111001 6
#560
b11001000001 *
b10101001011 6
#561
b11001001011 *
b10101011010 6
#562
b11001011010 *
b10101101100 6
#563
b11001100101 *
b10101111110 6
#564
b11001110000 *
b10110001111 6
#565
b11001111111 *
b10110100001 6
#566
b11010001000 *
b10110110100 6
#567
b11010010100 *
b10111001101 6
#568
b11010011111 *
b10111010101 6
#569
b11010101010 *
b10111101010 6
#570
b11010110100 *
b10111111001 6
#571
b11010111110 *
b11000000100 6
#572
b11011001000 *
b11000011000 6
#573
b11011010000 *
b11000100010 6
#574
b11011011001 *
b11000110001 6
#575
b11011100010 *
b11001000001 6
#576
b11011101010 *
b11001001011 6
#577
b11011110010 *
b11001011010 6
#578
b11011111011 *
b11001100101 6
#579
b11100000010 *
b11001110000 6
#580
b11100001011 *
b11001111111 6
#581
b11100010010 *
b11010001000 6
#582
b11100010111 *
b11010010100 6
#583
b11100100010 *
b11010011111 6
#584
b11100101000 *
b11010101010 6
#585
b11100101110 *
b11010110100 6
#586
b11100110011 *
b11010111110 6
#587
b11100111000 *
b11011001000 6
#588
b11100111101 *
b11011010000 6
#589
b11101000011 *
b11011011001 6
#590
b11101000110 *
b11011100010 6
#591
b11101001011 *
b11011101010 6
#592
b11101001111 *
b11011110010 6
#593
b11101010100 *
b11011111011 6
#594
b11101011000 *
b11100000010 6
#595
b11101011100 *
b11100001011 6
#596
b11101100000 *
b11100010010 6
#597
b11101100100 *
b11100010111 6
#598
b11101100111 *
b11100100010 6
#599
b11101101010 *
b11100101000 6
#600
b11101101101 *
b11100101110 6
#601
b11101110000 *
b11100110011 6
#602
b11101110011 *
b11100111000 6
#603
b11101110101 *
b11100111101 6
#604
b11101110111 *
b11101000011 6
#605
b11101111011 *
b11101000110 6
#606
b11101111110 *
b11101001011 6
#607
b11110000000 *
b11101001111 6
#608
b11110000001 *
b11101010100 6
#609
b11110000101 *
b11101011000 6
#610
b11110000110 *
b11101011100 6
#611
b11110001010 *
b11101100000 6
#612
b11110001011 *
b11101100100 6
#613
b11110001110 *
b11101100111 6
#614
b11110010000 *
b11101101010 6
#615
b11110010001 *
b11101101101 6
#616
b11110010100 *
b11101110000 6
#617
b11110010111 *
b11101110011 6
#618
b11110011000 *
b11101110101 6
#619
b11110011100 *
b11101110111 6
#620
b11110011110 *
b11101111011 6
#621
b11110011101 *
b11101111110 6
#622
b11110100011 *
b11110000000 6
#623
b11110100101 *
b11110000001 6
#624
b11110100111 *
b11110000101 6
#625
b11110100110 *
b11110000110 6
#626
b11110100111 *
b11110001010 6
#627
b11110101010 *
b11110001011 6
#628
b11110001110 6
#629
b11110101011 *
b11110010000 6
#630
b11110101100 *
b11110010001 6
#631
b11110101110 *
b11110010100 6
#632
b11110010111 6
#633
b11110101111 *
b11110011000 6
#634
b11110110000 *
b11110011100 6
#635
b11110101111 *
b11110011110 6
#636
b11110110000 *
b11110011101 6
#637
b11110110001 *
b11110100011 6
#638
b11110100101 6
#639
b11110110010 *
b11110100111 6
#640
b11110110001 *
b11110100110 6
#641
b11110110011 *
b11110100111 6
#642
b11110101010 6
#643
b11110110100 *
#644
b11110110011 *
b11110101011 6
#645
b11110110100 *
b11110101100 6
#646
b11110110110 *
b11110101110 6
#647
b11110110101 *
#648
b11110110110 *
b11110101111 6
#649
b11110110111 *
b11110110000 6
#650
b11110101111 6
#651
b11110111000 *
b11110110000 6
#652
b11110110001 6
#653
b11110110111 *
#654
b11110111001 *
b11110110010 6
#655
b11110111000 *
b11110110001 6
#656
b11110111010 *
b11110110011 6
#657
b11110111011 *
#658
b11110111110 *
b11110110100 6
#659
b11110111101 *
b11110110011 6
#660
b11110110100 6
#661
b1 &
b11111000000 *
b11110110110 6
0o
0p
#662
b1 "
b10 &
b11110110101 6
0w
#663
b10 "
b11 &
b11110110110 6
#664
b11 "
b0 &
b11110110111 6
b111 N
#665
b0 "
b11111000001 *
b0 N
1w
#666
b11111000000 *
b11110111000 6
#668
b11110110111 6
#669
b11111000001 *
b11110111001 6
#670
b11110111111 *
b11110111000 6
#671
b11110111010 6
#672
b11111000000 *
b11110111011 6
#673
b11110111110 *
b11110111110 6
#674
b11111000000 *
b11110111101 6
#676
b11110111111 *
b11111000000 6
#678
b11110111110 *
#679
b11111000000 *
#680
b11110111111 *
b11111000001 6
#681
b11111000000 6
#682
b11110111110 *
#684
b11111000001 6
#685
b11110111111 *
b11110111111 6
#687
b11111000000 6
#688
b11110111110 *
b11110111110 6
#689
b11110111111 *
b11111000000 6
#691
b11110111110 *
b11110111111 6
#692
b11110111111 *
#693
b11111000000 *
b11110111110 6
#694
b11110111111 *
b11111000000 6
#695
b11110111111 6
#696
b11111000000 *
#697
b11111000010 *
b11110111110 6
#699
b11111000011 *
#700
b11111000100 *
b11110111111 6
#701
b11111000011 *
#702
b11111000100 *
#703
b11111000110 *
b11110111110 6
#704
b11111000100 *
b11110111111 6
#705
b11111000101 *
#706
b11110111110 6
#707
b11110111111 6
#708
b11111000000 6
#709
b11110111111 6
#710
b11111000100 *
#711
b11111000000 6
#712
b11111000010 6
#713
b11111000011 *
#714
b11111000100 *
b11111000011 6
#715
b11111000010 *
b11111000100 6
#716
b11111000011 *
b11111000011 6
#717
b11111000100 6
#718
b11111000001 *
b11111000110 6
#719
b11111000011 *
b11111000100 6
#720
b11111000001 *
b11111000101 6
#721
b11111000010 *
#723
b11111000011 *
#724
b11111000001 *
#725
b11111000100 6
#726
b11111000010 *
#727
b11111000001 *
#728
b11111000010 *
b11111000011 6
#729
b11111000011 *
b11111000100 6
#730
b11111000010 *
b11111000010 6
#731
b11111000100 *
b11111000011 6
#732
b11111000011 *
#733
b11111000100 *
b11111000001 6
#734
b11111000101 *
b11111000011 6
#735
b11111000011 *
b11111000001 6
#736
b11111000110 *
b11111000010 6
#738
b11111000111 *
b11111000011 6
#739
b11111001000 *
b11111000001 6
#740
b11111001010 *
#741
b11111001001 *
b11111000010 6
#742
b11111001010 *
b11111000001 6
#743
b11111001001 *
b11111000010 6
#744
b11111001011 *
b11111000011 6
#745
b11111001001 *
b11111000010 6
#746
b11111000100 6
#747
b11111001010 *
b11111000011 6
#748
b11111001000 *
b11111000100 6
#749
b11111001010 *
b11111000101 6
#750
b11111001001 *
b11111000011 6
#751
b11111001010 *
b11111000110 6
#753
b11111000111 6
#754
b11111001000 6
#755
b11111001010 6
#756
b11111001001 6
#757
b11111001010 6
#758
b11111001001 *
b11111001001 6
#759
b11111001010 *
b11111001011 6
#760
b11111001001 6
#761
b11111001001 *
#762
b11111001100 *
b11111001010 6
#763
b11111001011 *
b11111001000 6
#764
b11111001010 *
b11111001010 6
#765
b11111001011 *
b11111001001 6
#766
b11111001010 6
#768
b11111001010 *
#769
b11111001101 *
#770
b11111001100 *
#773
b11111001001 6
#774
b11111001010 6
#775
b11111001110 *
#776
b11111001101 *
b11111001001 6
#777
b11111001111 *
b11111001100 6
#778
b11111001011 6
#779
b11111010001 *
b11111001010 6
#780
b11111001011 6
#781
b11111010000 *
#782
b11111010001 *
#783
b11111010000 *
b11111001010 6
#784
b11111001101 6
#785
b11111001111 *
b11111001100 6
#789
b11111010000 *
#790
b11111001111 *
b11111001110 6
#791
b11111001110 *
b11111001101 6
#792
b11111001111 6
#793
b11111010000 *
#794
b11111001111 *
b11111010001 6
#795
b11111001101 *
#796
b11111001111 *
b11111010000 6
#797
b11111001110 *
b11111010001 6
#798
b11111010000 6
#799
b11111001101 *
#800
b11111001111 6
#801
b11111001100 *
#803
b11111001011 *
#804
b11111010000 6
#805
b11111001111 6
#806
b11111001010 *
b11111001110 6
#807
b11111001011 *
#808
b11111001010 *
b11111010000 6
#809
b11111001111 6
#810
b11111001101 6
#811
b11111001111 6
#812
b11111001110 6
#813
b11111001011 *
#814
b11111001101 6
#815
b11111001100 *
#816
b11111001100 6
#817
b11111001011 *
#818
b11111001110 *
b11111001011 6
#819
b11111001111 *
#821
b11111001110 *
b11111001010 6
#822
b11111001011 6
#823
b11111001010 6
#826
b11111001101 *
#827
b11111001110 *
#828
b11111001100 *
b11111001011 6
#829
b11111001101 *
#830
b11111001100 *
b11111001100 6
#831
b11111001101 *
#832
b11111001100 *
b11111001011 6
#833
b11111001110 6
#834
b11111001110 *
b11111001111 6
#835
b11111001100 *
#836
b11111001110 6
#838
b11111001011 *
#841
b11111001101 6
#842
b11111001110 6
#843
b11111001010 *
b11111001100 6
#844
b11111001011 *
b11111001101 6
#845
b11111001100 6
#846
b11111001101 6
#847
b11111001100 6
#849
b11111001010 *
b11111001110 6
#850
b11111001001 *
b11111001100 6
#851
b11111001010 *
#853
b11111001011 6
#854
b11111001011 *
#855
b11111001010 *
#856
b11111001000 *
#857
b11111001011 *
#858
b11111001010 *
b11111001010 6
#859
b11111001011 *
b11111001011 6
#860
b11111001010 *
#861
b11111001001 *
#864
b11111001000 *
b11111001010 6
#865
b11111001001 6
#866
b11111000111 *
b11111001010 6
#867
b11111001000 *
#868
b11111000111 *
#869
b11111001000 *
b11111001011 6
#870
b11111000110 *
b11111001010 6
#871
b11111000111 *
b11111001000 6
#872
b11111000110 *
b11111001011 6
#873
b11111000111 *
b11111001010 6
#874
b11111001011 6
#875
b11111001010 6
#876
b11111000110 *
b11111001001 6
#877
b11111000111 *
#879
b11111001000 6
#881
b11111000111 6
#882
b11111000110 *
b11111001000 6
#883
b11111001000 *
b11111000111 6
#884
b11111000111 *
b11111001000 6
#885
b11111001000 *
b11111000110 6
#886
b11111000111 *
b11111000111 6
#887
b11111000110 6
#888
b11111001000 *
b11111000111 6
#889
b11111000111 *
#890
b11111001000 *
#891
b11111000111 *
b11111000110 6
#892
b11111001000 *
b11111000111 6
#894
b11111001001 *
#895
b11111001000 *
#896
b11111001011 *
#897
b11111001001 *
b11111000110 6
#898
b11111001000 6
#899
b11111001010 *
b11111000111 6
#900
b11111001001 *
b11111001000 6
#901
b11111000111 6
#903
b11111001000 6
#904
b11111001000 *
b11111000111 6
#905
b11111000111 *
b11111001000 6
#906
b11111001000 *
b11111000111 6
#907
b11111000111 *
b11111001000 6
#909
b11111001001 6
#910
b11111001000 6
#911
b11111001000 *
b11111001011 6
#912
b11111000111 *
b11111001001 6
#913
b11111001001 *
#914
b11111001000 *
b11111001010 6
#915
b11111001001 6
#918
b11111000111 *
#919
b11111001000 *
b11111001000 6
#920
b11111000111 *
b11111000111 6
#921
b11111001000 *
b11111001000 6
#922
b11111000111 6
#923
b11111000111 *
#924
b11111001000 *
#925
b11111001001 *
#926
b11111000111 *
b11111001000 6
#927
b11111001000 *
b11111000111 6
#928
b11111001001 *
b11111001001 6
#929
b11111001000 *
b11111001000 6
#931
b11111001001 *
#933
b11111001000 *
b11111000111 6
#934
b11111001010 *
b11111001000 6
#935
b11111001100 *
b11111000111 6
#936
b11111001011 *
b11111001000 6
#938
b11111001100 *
b11111000111 6
#939
b11111001011 *
b11111001000 6
#940
b11111001001 6
#941
b11111000111 6
#942
b11111001100 *
b11111001000 6
#943
b11111001011 *
b11111001001 6
#944
b11111001100 *
b11111001000 6
#945
b11111001011 *
#946
b11111001001 6
#948
b11111001001 *
b11111001000 6
#949
b11111001011 *
b11111001010 6
#950
b11111001001 *
b11111001100 6
#951
b11111001011 *
b11111001011 6
#952
b11111001010 *
#953
b11111001001 *
b11111001100 6
#954
b11111001010 *
b11111001011 6
#956
b11111001011 *
#957
b11111001010 *
b11111001100 6
#958
b11111001001 *
b11111001011 6
#959
b11111001100 6
#960
b11111001010 *
b11111001011 6
#961
b11111001001 *
#963
b11111001010 *
b11111001001 6
#964
b11111001011 6
#965
b11111001001 6
#966
b11111001011 *
b11111001011 6
#967
b11111001010 *
b11111001010 6
#968
b11111001011 *
b11111001001 6
#969
b11111001100 *
b11111001010 6
#971
b11111001011 6
#972
b11111001101 *
b11111001010 6
#973
b11111001001 6
#974
b11111010000 *
#975
b11111001111 *
b11111001010 6
#976
b11111001001 6
#977
b11111010000 *
#978
b11111001111 *
b11111001010 6
#979
b11111010000 *
#980
b11111001111 *
#981
b11111001110 *
b11111001011 6
#982
b11111001010 6
#983
b11111001011 6
#984
b11111001100 6
#985
b11111001101 *
#987
b11111001101 6
#988
b11111001110 *
#989
b11111001011 *
b11111010000 6
#990
b11111001100 *
b11111001111 6
#991
b11111001011 *
#992
b11111010000 6
#993
b11111001111 6
#994
b11111001010 *
b11111010000 6
#995
b11111001001 *
b11111001111 6
#996
b11111001010 *
b11111001110 6
#997
b11111001011 *
#998
b11111001010 *
#1000
b11111001001 *
b11111001101 6
#1002
b11111001000 *
#1003
b11111001001 *
b11111001110 6
#1004
b11111001011 6
#1005
b11111001100 6
#1006
b11111001011 6
#1009
b11111001010 *
b11111001010 6
#1010
b11111001001 *
b11111001001 6
#1011
b11111001010 6
#1012
b11111001011 *
b11111001011 6
#1013
b11111001010 *
b11111001010 6
#1014
b11111001100 *
#1015
b11111001101 *
b11111001001 6
#1017
b11111001000 6
#1018
b11111001001 6
#1019
b11111001110 *
#1020
b11111001100 *
#1022
b11111001101 *
#1023
b11111001100 *
