.Xil/Vivado-383804-DESKTOP-3JDODKJ/hw_ila_data_3/zip_work/waveform.vcd
$date
        2024-Jul-31 00:44:16
$end
$version
        Vivado v2017.4 (64-bit)
$end
$timescale
        1ps
$end
$scope module dut $end
$var reg 4 " data/adc_B_data_package/state23 [3:0] $end
$var reg 4 & data/adc_B_data_package/next_state23 [3:0] $end
$var reg 12 * data/adc_B_data_package/adc_data [11:0] $end
$var reg 12 6 data/adc_B_data_package/fifo1 [11:0] $end
$var reg 12 B data/adc_B_data_package/data_fifo2_out [11:0] $end
$var reg 4 N data/adc_B_data_package/data_fifo3_in [3:0] $end
$var reg 1 R data/adc_B_data_package/rd_fifo2 $end
$var reg 8 S data/adc_B_data_package/data_cnt_fifo2 [7:0] $end
$var reg 8 [ data/adc_B_data_package/data_cnt_fifo2_use [7:0] $end
$var reg 12 c data/adc_B_data_package/cnt23 [11:0] $end
$var reg 1 o data/adc_B_data_package/rd_fifo1_1 $end
$var reg 1 p data/adc_B_data_package/rd_fifo1 $end
$var reg 1 q data/adc_B_data_package/clk_125m $end
$var reg 1 r data/adc_B_data_package/full $end
$var reg 1 s data/adc_B_data_package/empty $end
$var reg 1 t data/adc_B_data_package/wr_rst_busy $end
$var reg 1 u data/adc_B_data_package/rd_rst_busy $end
$var reg 1 v data/adc_B_data_package/wr_fifo3 $end
$var reg 1 w data/adc_B_data_package/fifo23_end $end
$var reg 1 x data/adc_B_data_package/rd_fifo3 $end
$var reg 10 y data/adc_B_data_package/data_cnt_fifo3 [9:0] $end
$var reg 4 %" data/adc_B_data_package/data_fifo3_out [3:0] $end
$var reg 1 )" data/adc_B_data_package/full3 $end
$var reg 1 *" data/adc_B_data_package/empty3 $end
$var reg 1 +" _TRIGGER $end
$var reg 1 ," _WINDOW $end
$var reg 1 -" _GAP $end
$upscope $end
$enddefinitions $end
#0
$dumpvars
b0 "
b0 &
b11111010010 *
b11111010101 6
b0 B
b0 N
0R
b0 S
b0 [
b0 c
0o
0p
1q
1r
0s
0t
0u
0v
1w
0x
b0 y
b0 %"
0)"
1*"
0+"
1,"
0-"
$end
#1
b11111010001 *
#2
b11111010010 *
b11111010100 6
#3
b11111010001 *
#4
b11111010000 *
#5
b11111010001 *
b11111010011 6
#6
b11111010100 6
#7
b11111010011 6
#8
b11111010000 *
#9
b11111010001 *
#10
b11111001111 *
#11
b11111010000 *
#13
b11111001111 *
b11111010100 6
#14
b11111010011 6
#15
b11111010010 6
#16
b11111010010 *
b11111010001 6
#17
b11111010001 *
b11111010010 6
#18
b11111010001 6
#19
b11111010011 *
b11111010000 6
#20
b11111010001 6
#21
b11111010100 *
#22
b11111010011 *
#23
b11111010000 6
#24
b11111010100 *
b11111010001 6
#25
b11111001111 6
#26
b11111010011 *
b11111010000 6
#27
b11111010101 *
#28
b11111010100 *
b11111001111 6
#30
b11111010011 *
#31
b11111010010 *
b11111010010 6
#32
b11111010001 6
#33
b11111010011 *
#34
b11111010011 6
#36
b11111010010 *
b11111010100 6
#37
b11111010011 *
b11111010011 6
#39
b11111010101 *
b11111010100 6
#40
b11111010011 *
#41
b11111010011 6
#42
b11111010100 *
b11111010101 6
#43
b11111010101 *
b11111010100 6
#44
b11111010011 *
#45
b11111010100 *
b11111010011 6
#46
b11111010010 6
#48
b11111010101 *
b11111010011 6
#49
b11111010100 *
#51
b11111010101 *
b11111010010 6
#52
b11111010011 6
#53
b11111010110 *
#54
b11111010101 6
#55
b11111010011 6
#57
b11111011000 *
b11111010100 6
#58
b11111010101 6
#59
b11111011001 *
b11111010011 6
#60
b11111010100 6
#61
b11111011010 *
#62
b11111011001 *
#63
b11111010101 6
#64
b11111011010 *
b11111010100 6
#65
b11111011001 *
#66
b11111010101 6
#68
b11111011000 *
b11111010110 6
#70
b11111011001 *
#71
b11111010111 *
#72
b11111011000 *
b11111011000 6
#74
b11111011001 6
#76
b11111010111 *
b11111011010 6
#77
b11111011001 6
#79
b11111011000 *
b11111011010 6
#80
b11111010111 *
b11111011001 6
#82
b11111010110 *
#83
b11111010111 *
b11111011000 6
#85
b11111010110 *
b11111011001 6
#86
b11111010111 *
b11111010111 6
#87
b11111011000 6
#91
b11111010111 6
#94
b11111011000 *
b11111011000 6
#95
b11111010111 6
#96
b11111011001 *
#97
b11111011000 *
b11111010110 6
#98
b11111011010 *
b11111010111 6
#100
b11111010110 6
#101
b11111011011 *
b11111010111 6
#102
b11111011001 *
#103
b11111011010 *
#104
b11111011001 *
#106
b11111011000 *
#109
b11111011000 6
#110
b11111010111 *
#111
b11111010110 *
b11111011001 6
#112
b11111011000 6
#113
b11111011010 6
#115
b11111010101 *
#116
b11111011011 6
#117
b11111011001 6
#118
b11111011010 6
#119
b11111010100 *
b11111011001 6
#121
b11111010101 *
b11111011000 6
#124
b11111010011 *
#125
b11111010100 *
b11111010111 6
#126
b11111010110 6
#127
b11111010011 *
#128
b11111010100 *
#130
b11111010101 *
b11111010101 6
#133
b11111010110 *
#134
b11111010101 *
b11111010100 6
#136
b11111010101 6
#137
b11111010111 *
#138
b11111010110 *
#139
b11111010111 *
b11111010011 6
#140
b11111010100 6
#141
b11111010101 *
#142
b11111010110 *
b11111010011 6
#143
b11111010101 *
b11111010100 6
#145
b11111010110 *
b11111010101 6
#146
b11111010101 *
#148
b11111010110 6
#149
b11111010101 6
#150
b11111010011 *
#152
b11111010100 *
b11111010111 6
#153
b11111010011 *
b11111010110 6
#154
b11111010100 *
b11111010111 6
#155
b11111010011 *
#156
b11111010101 6
#157
b11111010100 *
b11111010110 6
#158
b11111010101 6
#160
b11111010011 *
b11111010110 6
#161
b11111010100 *
b11111010101 6
#163
b11111010011 *
#165
b11111010001 *
b11111010011 6
#166
b11111010100 *
#167
b11111010011 *
b11111010100 6
#168
b11111010100 *
b11111010011 6
#169
b11111010100 6
#170
b11111010010 *
b11111010011 6
#171
b11111010100 *
#172
b11111010101 *
b11111010100 6
#175
b11111010011 6
#176
b11111010110 *
b11111010100 6
#178
b11111010111 *
b11111010011 6
#179
b11111010110 *
#180
b11111010111 *
b11111010001 6
#181
b11111010100 6
#182
b11111010110 *
b11111010011 6
#183
b11111010100 6
#185
b11111010010 6
#186
b11111010101 *
b11111010100 6
#187
b11111010110 *
b11111010101 6
#188
b11111010101 *
#191
b11111010110 6
#192
b11111010100 *
#193
b11111010101 *
b11111010111 6
#194
b11111010110 *
b11111010110 6
#195
b11111010100 *
b11111010111 6
#197
b11111010101 *
b11111010110 6
#199
b11111010100 *
#200
b11111010101 *
#201
b11111010101 6
#202
b11111010100 *
b11111010110 6
#203
b11111010101 6
#205
b11111010101 *
#207
b11111010100 *
b11111010100 6
#208
b11111010101 *
b11111010101 6
#209
b11111010110 *
b11111010110 6
#210
b11111010100 *
b11111010100 6
#211
b11111010101 *
#212
b11111010110 *
b11111010101 6
#214
b11111010100 6
#215
b11111010111 *
b11111010101 6
#217
b11111011001 *
b11111010100 6
#218
b11111010111 *
#220
b11111010101 6
#222
b11111010100 6
#223
b11111010101 6
#224
b11111010110 6
#225
b11111010100 6
#226
b11111010101 6
#227
b11111010101 *
b11111010110 6
#228
b11111010111 *
#229
b11111010110 *
#230
b11111010111 *
b11111010111 6
#231
b11111010110 *
#232
b11111010111 *
b11111011001 6
#233
b11111010110 *
b11111010111 6
#234
b11111010101 *
#235
b11111010100 *
#236
b11111010110 *
#238
b11111010101 *
#239
b11111010110 *
#240
b11111010101 *
#241
b11111010110 *
#242
b11111010101 *
b11111010101 6
#243
b11111010111 6
#244
b11111010100 *
b11111010110 6
#245
b11111010111 6
#246
b11111010110 6
#247
b11111010111 6
#248
b11111010110 6
#249
b11111010101 *
b11111010101 6
#250
b11111010100 6
#251
b11111010111 *
b11111010110 6
#252
b11111010101 *
#253
b11111010101 6
#254
b11111010111 *
b11111010110 6
#255
b11111010101 6
#256
b11111011000 *
b11111010110 6
#257
b11111010111 *
b11111010101 6
#259
b11111010100 6
#260
b11111010110 *
#261
b11111010111 *
#262
b11111010101 *
#263
b11111010111 *
#264
b11111010101 *
b11111010101 6
#265
b11111010110 *
#266
b11111010101 *
b11111010111 6
#267
b11111010101 6
#268
b11111010100 *
#269
b11111010101 *
b11111010111 6
#271
b11111011000 6
#272
b11111010100 *
b11111010111 6
#275
b11111010011 *
b11111010110 6
#276
b11111010100 *
b11111010111 6
#277
b11111010010 *
b11111010101 6
#278
b11111010011 *
b11111010111 6
#279
b11111010101 6
#280
b11111010010 *
b11111010110 6
#281
b11111010101 6
#282
b11111010001 *
#283
b11111010010 *
b11111010100 6
#284
b11111010001 *
b11111010101 6
#285
b11111010010 *
#286
b11111010001 *
#287
b11111010100 6
#289
b11111010010 *
#290
b11111010011 6
#291
b11111010100 6
#292
b11111010001 *
b11111010010 6
#293
b11111010010 *
b11111010011 6
#294
b11111010011 *
#295
b11111010010 6
#297
b11111010001 6
#298
b11111010001 *
b11111010010 6
#299
b11111010001 6
#300
b11111010010 *
b11111010010 6
#301
b11111010001 *
b11111010001 6
#304
b11111010000 *
b11111010010 6
#306
b11111010001 *
#307
b11111010000 *
b11111010001 6
#308
b11111010001 *
b11111010010 6
#309
b11111010011 6
#311
b11111010000 *
#313
b11111010001 *
b11111010001 6
#314
b11111010000 *
#315
b11111001111 *
b11111010010 6
#316
b11111010000 *
b11111010001 6
#317
b11111010001 *
#319
b11111010000 *
b11111010000 6
#320
b11111010001 *
#321
b11111010001 6
#322
b11111010000 *
b11111010000 6
#323
b11111010001 6
#324
b11111010001 *
#325
b11111010010 *
#326
b11111010000 6
#328
b11111010011 *
b11111010001 6
#329
b11111010100 *
b11111010000 6
#330
b11111010011 *
b11111001111 6
#331
b11111010100 *
b11111010000 6
#332
b11111010101 *
b11111010001 6
#333
b11111010100 *
#334
b11111010110 *
b11111010000 6
#335
b11111010001 6
#336
b11111010101 *
#337
b11111010000 6
#339
b11111010001 6
#340
b11111010110 *
b11111010010 6
#341
b11111010101 *
#342
b11111010100 *
#343
b11111010101 *
b11111010011 6
#344
b11111010100 *
b11111010100 6
#345
b11111010101 *
b11111010011 6
#346
b11111010011 *
b11111010100 6
#347
b11111010100 *
b11111010101 6
#348
b11111010100 6
#349
b11111010011 *
b11111010110 6
#351
b11111010100 *
b11111010101 6
#352
b11111010011 *
#353
b11111010100 *
#354
b11111010011 *
#355
b11111010110 6
#356
b11111010101 6
#357
b11111010100 6
#358
b11111010010 *
b11111010101 6
#359
b11111010100 *
b11111010100 6
#360
b11111010011 *
b11111010101 6
#361
b11111010011 6
#362
b11111010100 6
#364
b11111010100 *
b11111010011 6
#366
b11111010101 *
b11111010100 6
#367
b11111010011 6
#368
b11111010110 *
b11111010100 6
#369
b11111010101 *
b11111010011 6
#371
b11111010111 *
#372
b11111010110 *
#373
b11111011000 *
b11111010010 6
#374
b11111010111 *
b11111010100 6
#375
b11111010011 6
#377
b11111010110 *
#378
b11111010111 *
#379
b11111010100 6
#380
b11111010110 *
#381
b11111011000 *
b11111010101 6
#382
b11111010110 *
#383
b11111010110 6
#384
b11111010101 *
b11111010101 6
#385
b11111010110 *
#386
b11111010101 *
b11111010111 6
#387
b11111010110 *
b11111010110 6
#388
b11111011000 6
#389
b11111010111 6
#390
b11111010111 *
#391
b11111010101 *
#392
b11111010110 6
#393
b11111010110 *
b11111010111 6
#395
b11111010110 6
#396
b11111011000 6
#397
b11111010101 *
b11111010110 6
#398
b11111010110 *
#399
b11111010111 *
b11111010101 6
#400
b11111010110 6
#401
b11111010110 *
b11111010101 6
#402
b11111010111 *
b11111010110 6
#405
b11111010111 6
#406
b11111010101 6
#407
b11111011000 *
#408
b11111011001 *
b11111010110 6
#409
b11111011000 *
#410
b11111011010 *
#412
b11111011011 *
b11111010101 6
#413
b11111010110 6
#414
b11111011001 *
b11111010111 6
#415
b11111011011 *
#416
b11111010110 6
#417
b11111010111 6
#419
b11111011010 *
#420
b11111011001 *
#421
b11111011010 *
#422
b11111011001 *
b11111011000 6
#423
b11111011001 6
#424
b11111011010 *
b11111011000 6
#425
b11111011000 *
b11111011010 6
#427
b11111011011 6
#428
b11111011010 *
#429
b11111011000 *
b11111011001 6
#430
b11111010111 *
b11111011011 6
#431
b11111011000 *
#432
b11111011001 *
#433
b11111011000 *
#434
b11111011001 *
b11111011010 6
#435
b11111011001 6
#436
b11111010111 *
b11111011010 6
#437
b11111011001 *
b11111011001 6
#438
b11111010111 *
#439
b11111011000 *
b11111011010 6
#440
b11111011001 *
b11111011000 6
#442
b11111011000 *
#443
b11111011001 *
b11111011010 6
#444
b11111011000 6
#445
b11111010111 6
#446
b11111011010 *
b11111011000 6
#447
b11111011001 *
b11111011001 6
#448
b11111011000 6
#449
b11111011010 *
b11111011001 6
#450
b11111011011 *
#451
b11111010111 6
#452
b11111011010 *
b11111011001 6
#453
b11111011011 *
b11111010111 6
#454
b11111011010 *
b11111011000 6
#455
b11111011001 *
b11111011001 6
#456
b11111011000 *
#457
b11111011000 6
#458
b11111011001 6
#461
b11111010111 *
b11111011010 6
#462
b11111011001 6
#463
b11111010110 *
#464
b11111010101 *
b11111011010 6
#465
b11111010110 *
b11111011011 6
#466
b11111010111 *
#467
b11111011010 6
#468
b11111010110 *
b11111011011 6
#469
b11111011010 6
#470
b11111010101 *
b11111011001 6
#471
b11111011000 6
#474
b11111010100 *
#475
b11111010011 *
#476
b11111010111 6
#478
b11111010110 6
#479
b11111010100 *
b11111010101 6
#480
b11111010011 *
b11111010110 6
#481
b11111010111 6
#483
b11111010110 6
#485
b11111010100 *
b11111010101 6
#487
b11111010011 *
#488
b11111010111 *
#489
b11111010101 *
b11111010100 6
#490
b11111010111 *
b11111010011 6
#491
b11111010110 *
#494
b11111010101 *
b11111010100 6
#495
b11111010011 6
#499
b11111010011 *
#500
b11111010101 *
b11111010100 6
#501
b11111010100 *
#502
b11111010011 6
#503
b11111010111 6
#504
b11111010101 6
#505
b11111010111 6
#506
b11111010110 6
#509
b11111010101 6
#510
b11111010011 *
#511
b11111010100 *
#512
b11111010011 *
1+"
#514
b11111010100 *
b11111010011 6
#515
b11111010011 *
b11111010101 6
#516
b11111010100 6
#522
b11111010100 *
#523
b11111010101 *
#525
b11111010011 6
#526
b11111010100 *
b11111010100 6
#527
b11111010110 *
b11111010011 6
#528
b11111010111 *
#529
b11111011000 *
b11111010100 6
#530
b11111010110 *
b11111010011 6
#531
b11111010101 *
#532
b11111010110 *
#535
b11111010101 *
#537
b11111010011 *
b11111010100 6
#538
b11111010010 *
b11111010101 6
#540
b11111010100 *
#541
b11111010010 *
b11111010100 6
#542
b11111010110 6
#543
b11111010111 6
#544
b11111010001 *
b11111011000 6
#545
b11111010110 6
#546
b11111010101 6
#547
b11111010000 *
b11111010110 6
#548
b11111010001 *
#549
b11111010010 *
#550
b11111010001 *
b11111010101 6
#551
b11111010010 *
#552
b11111010011 6
#553
b11111010001 *
b11111010010 6
#554
b11111010010 *
#555
b11111010001 *
b11111010100 6
#556
b11111010010 6
#557
b11111010010 *
#559
b11111010001 6
#562
b11111010000 6
#563
b11111010100 *
b11111010001 6
#564
b11111010010 6
#565
b11111010011 *
b11111010001 6
#566
b11111010101 *
b11111010010 6
#567
b11111010100 *
#568
b11111010111 *
b11111010001 6
#569
b11111010101 *
b11111010010 6
#570
b11111010001 6
#571
b11111010110 *
#572
b11111010101 *
b11111010010 6
#573
b11111010110 *
#574
b11111010101 *
#575
b11111010100 *
#576
b11111010101 *
#578
b11111010100 6
#579
b11111010011 *
#580
b11111010011 6
#581
b11111010100 *
b11111010101 6
#582
b11111010100 6
#583
b11111010111 6
#584
b11111010101 6
#585
b11111010101 *
#586
b11111010100 *
b11111010110 6
#587
b11111010101 6
#588
b11111010110 6
#589
b11111010101 6
#590
b11111010101 *
b11111010100 6
#591
b11111010100 *
b11111010101 6
#594
b11111010011 6
#595
b11111010101 *
#596
b11111010100 *
b11111010100 6
#597
b11111010101 *
#600
b11111010100 *
b11111010101 6
#601
b11111010110 *
b11111010100 6
#602
b11111010101 *
#603
b11111010110 *
#605
b11111011001 *
b11111010101 6
#606
b11111010111 *
b11111010100 6
#607
b11111011001 *
#608
b11111011000 *
#609
b11111011001 *
#610
b11111010101 6
#611
b11111011000 *
b11111010100 6
#612
b11111010111 *
b11111010101 6
#613
b11111011000 *
#614
b11111010111 *
#615
b11111010100 6
#616
b11111011000 *
b11111010110 6
#617
b11111010110 *
b11111010101 6
#618
b11111010110 6
#619
b11111010101 *
#620
b11111011001 6
#621
b11111010110 *
b11111010111 6
#622
b11111010101 *
b11111011001 6
#623
b11111011000 6
#624
b11111011001 6
#626
b11111010100 *
b11111011000 6
#627
b11111010111 6
#628
b11111011000 6
#629
b11111010101 *
b11111010111 6
#630
b11111010100 *
#631
b11111011000 6
#632
b11111010011 *
b11111010110 6
#634
b11111010100 *
b11111010101 6
#635
b11111010011 *
#636
b11111010101 *
b11111010110 6
#637
b11111010100 *
b11111010101 6
#638
b11111010011 *
#639
b11111010101 *
#641
b11111010100 6
#642
b11111010110 *
#643
b11111010101 *
#644
b11111011000 *
b11111010101 6
#645
b11111010101 *
b11111010100 6
#646
b11111011000 *
#647
b11111010011 6
#648
b11111010111 *
#649
b11111010110 *
b11111010100 6
#650
b11111010111 *
b11111010011 6
#651
b11111010110 *
b11111010101 6
#652
b11111010100 6
#653
b11111010011 6
#654
b11111010101 6
#657
b11111010110 6
#658
b11111010100 *
b11111010101 6
#659
b11111010101 *
b11111011000 6
#660
b11111010110 *
b11111010101 6
#661
b11111010101 *
b11111011000 6
#662
b11111010110 *
#663
b11111010101 *
b11111010111 6
#664
b11111010100 *
b11111010110 6
#665
b11111010111 6
#666
b11111010101 *
b11111010110 6
#667
b11111010100 *
#673
b11111010100 6
#674
b11111010101 6
#675
b11111010110 6
#676
b11111010101 *
b11111010101 6
#677
b11111010110 6
#678
b11111010101 6
#679
b11111010100 6
#681
b11111010110 *
b11111010101 6
#682
b11111010100 6
#683
b11111011000 *
#684
b11111010110 *
#685
b11111011000 *
#687
b11111010111 *
#691
b11111010110 *
b11111010101 6
#693
b11111010111 *
#694
b11111010110 *
#695
b11111010101 *
#696
b11111010110 6
#697
b11111010110 *
#698
b11111011000 6
#699
b11111010101 *
b11111010110 6
#700
b11111011000 6
#702
b11111010111 6
#705
b11111010100 *
#706
b11111010110 6
#708
b11111010111 6
#709
b11111010110 6
#710
b11111010101 6
#711
b11111010101 *
#712
b11111010100 *
b11111010110 6
#714
b11111010101 6
#715
b11111010101 *
#717
b11111010100 *
#718
b11111010110 *
#720
b11111010101 *
b11111010100 6
#721
b11111010110 *
#722
b11111010111 *
#724
b11111011000 *
#725
b11111010111 *
#726
b11111010110 *
b11111010101 6
#727
b11111010100 6
#728
b11111010101 *
#729
b11111010110 *
#730
b11111010100 *
b11111010101 6
#732
b11111010101 *
b11111010100 6
#733
b11111010011 *
b11111010110 6
#734
b11111010100 *
#735
b11111010011 *
b11111010101 6
#736
b11111010110 6
#737
b11111010111 6
#738
b11111010010 *
#739
b11111010011 *
b11111011000 6
#740
b11111010010 *
b11111010111 6
#741
b11111010110 6
#743
b11111010101 6
#744
b11111010110 6
#745
b11111010011 *
b11111010100 6
#746
b11111010010 *
#747
b11111010011 *
b11111010101 6
#748
b11111010011 6
#749
b11111010100 6
#750
b11111010011 6
#752
b11111010010 *
#753
b11111010011 *
b11111010010 6
#754
b11111010011 6
#755
b11111010100 *
b11111010010 6
#757
b11111010101 *
#759
b11111010100 *
#760
b11111010011 6
#761
b11111010111 *
b11111010010 6
#762
b11111010101 *
b11111010011 6
#763
b11111010111 *
#764
b11111010110 *
#767
b11111010010 6
#768
b11111010011 6
#769
b11111010101 *
#770
b11111010100 6
#772
b11111010100 *
b11111010101 6
#773
b11111010101 *
#774
b11111010100 6
#775
b11111010011 *
#776
b11111010111 6
#777
b11111010100 *
b11111010101 6
#778
b11111010011 *
b11111010111 6
#779
b11111010110 6
#780
b11111010100 *
#781
b11111010011 *
#783
b11111010100 *
#784
b11111010101 6
#787
b11111010011 *
b11111010100 6
#788
b11111010100 *
b11111010101 6
#790
b11111010011 6
#791
b11111010011 *
#792
b11111010100 *
b11111010100 6
#793
b11111010101 *
b11111010011 6
#795
b11111010100 6
#796
b11111010011 6
#797
b11111010110 *
#798
b11111010111 *
b11111010100 6
#799
b11111011000 *
#800
b11111011001 *
#801
b11111011000 *
#802
b11111010011 6
#803
b11111011001 *
b11111010100 6
#805
b11111011000 *
#806
b11111011001 *
b11111010011 6
#807
b11111011000 *
b11111010100 6
#808
b11111010101 6
#812
b11111010110 6
#813
b11111010111 6
#814
b11111010110 *
b11111011000 6
#815
b11111010111 *
b11111011001 6
#816
b11111010110 *
b11111011000 6
#817
b11111011000 *
#818
b11111010111 *
b11111011001 6
#819
b11111010110 *
#820
b11111011000 6
#821
b11111011001 6
#822
b11111010111 *
b11111011000 6
#823
b11111010110 *
#824
b11111010101 *
#827
b11111010110 *
#828
b11111010101 *
#829
b11111010100 *
b11111010110 6
#830
b11111010111 6
#831
b11111010110 6
#832
b11111011000 6
#833
b11111010111 6
#834
b11111010101 *
b11111010110 6
#835
b11111010110 *
#837
b11111010101 *
b11111010111 6
#838
b11111010111 *
b11111010110 6
#839
b11111011000 *
b11111010101 6
#840
b11111010110 *
#841
b11111011000 *
#842
b11111011001 *
b11111010110 6
#843
b11111010111 *
b11111010101 6
#844
b11111011000 *
b11111010100 6
#845
b11111010111 *
#846
b11111011000 *
#847
b11111010111 *
#849
b11111010101 6
#850
b11111010110 *
b11111010110 6
#852
b11111010101 6
#853
b11111010111 6
#854
b11111011000 6
#855
b11111010110 6
#856
b11111010101 *
b11111011000 6
#857
b11111010111 *
b11111011001 6
#858
b11111010110 *
b11111010111 6
#859
b11111011000 6
#860
b11111010100 *
b11111010111 6
#861
b11111010101 *
b11111011000 6
#862
b11111010100 *
b11111010111 6
#863
b11111010101 *
#865
b11111010110 *
b11111010110 6
#867
b11111010101 *
#868
b11111010100 *
#869
b11111010101 *
#871
b11111010101 6
#872
b11111010110 *
b11111010111 6
#873
b11111010101 *
b11111010110 6
#874
b11111010111 *
#875
b11111010100 6
#876
b11111010110 *
b11111010101 6
#877
b11111011000 *
b11111010100 6
#878
b11111011010 *
b11111010101 6
#879
b11111010111 *
#880
b11111011000 *
b11111010110 6
#881
b11111011001 *
#882
b11111010111 *
b11111010101 6
#883
b11111011000 *
b11111010100 6
#884
b11111010111 *
b11111010101 6
#885
b11111010110 *
#887
b11111010101 *
b11111010110 6
#888
b11111010110 *
b11111010101 6
#889
b11111010101 *
b11111010111 6
#891
b11111010100 *
b11111010110 6
#892
b11111010101 *
b11111011000 6
#893
b11111011010 6
#894
b11111010100 *
b11111010111 6
#895
b11111010011 *
b11111011000 6
#896
b11111011001 6
#897
b11111010111 6
#898
b11111011000 6
#899
b11111010010 *
b11111010111 6
#900
b11111010110 6
#901
b11111010011 *
#902
b11111010101 6
#903
b11111010110 6
#904
b11111010101 6
#905
b11111010010 *
#906
b11111010011 *
b11111010100 6
#907
b11111010010 *
b11111010101 6
#908
b11111010100 *
#909
b11111010011 *
b11111010100 6
#910
b11111010010 *
b11111010011 6
#911
b11111010011 *
#912
b11111010100 *
#914
b11111010011 *
b11111010010 6
#915
b11111010100 *
#916
b11111010101 *
b11111010011 6
#917
b11111010110 *
#918
b11111010101 *
#919
b11111010111 *
#920
b11111010010 6
#921
b11111010110 *
b11111010011 6
#922
b11111010010 6
#923
b11111010100 6
#924
b11111010111 *
b11111010011 6
#925
b11111010110 *
b11111010010 6
#926
b11111010101 *
b11111010011 6
#927
b11111010110 *
b11111010100 6
#928
b11111010101 *
#929
b11111010011 6
#930
b11111010100 6
#931
b11111010100 *
b11111010101 6
#932
b11111010110 6
#933
b11111010101 *
b11111010101 6
#934
b11111010111 6
#935
b11111010100 *
#936
b11111010101 *
b11111010110 6
#939
b11111010100 *
b11111010111 6
#940
b11111010110 6
#941
b11111010101 6
#942
b11111010011 *
b11111010110 6
#943
b11111010100 *
b11111010101 6
#944
b11111010011 *
#945
b11111010100 *
#946
b11111010011 *
b11111010100 6
#947
b11111010100 *
#948
b11111010101 6
#949
b11111010011 *
#950
b11111010010 *
b11111010100 6
#951
b11111010011 *
b11111010101 6
#953
b11111010100 *
#954
b11111010100 6
#955
b11111010101 *
#956
b11111010111 *
#957
b11111010101 *
b11111010011 6
#958
b11111010111 *
b11111010100 6
#959
b11111010011 6
#960
b11111010100 6
#961
b11111010110 *
b11111010011 6
#962
b11111010100 *
b11111010100 6
#963
b11111010111 *
#964
b11111010110 *
b11111010011 6
#965
b11111010010 6
#966
b11111010101 *
b11111010011 6
#968
b11111010100 6
#970
b11111010100 *
b11111010101 6
#971
b11111010110 *
b11111010111 6
#972
b11111010101 *
b11111010101 6
#973
b11111010111 6
#975
b11111010110 *
#976
b11111010100 *
b11111010110 6
#977
b11111010101 *
b11111010100 6
#978
b11111010111 6
#979
b11111010100 *
b11111010110 6
#981
b11111010101 *
b11111010101 6
#982
b11111010100 *
#985
b11111010100 6
#986
b11111010110 6
#987
b11111010101 6
#988
b11111010101 *
#990
b11111010100 *
b11111010110 6
#991
b11111010110 *
b11111010100 6
#992
b11111010101 6
#993
b11111010100 *
#994
b11111010110 *
b11111010100 6
#995
b11111011000 *
#996
b11111010111 *
b11111010101 6
#997
b11111010100 6
#999
b11111010110 *
#1000
b11111010111 *
#1002
b11111010110 *
#1003
b11111010111 *
b11111010101 6
#1004
b11111010110 *
#1005
b11111010101 *
b11111010100 6
#1006
b11111010110 *
b11111010110 6
#1007
b11111010101 *
#1008
b11111010110 *
b11111010100 6
#1009
b11111010101 *
b11111010110 6
#1010
b11111011000 6
#1011
b11111010110 *
b11111010111 6
#1012
b11111010100 *
#1014
b11111010110 6
#1015
b11111010111 6
#1017
b11111010110 6
#1018
b11111010101 *
b11111010111 6
#1019
b11111010110 6
#1020
b11111010011 *
b11111010101 6
#1021
b11111010101 *
b11111010110 6
#1022
b11111010100 *
b11111010101 6
#1023
b11111010110 6
