.Xil/Vivado-18316-DESKTOP-3JDODKJ/hw_ila_data_17/zip_work/waveform.vcd
$date
        2024-Aug-18 18:25:33
$end
$version
        Vivado v2017.4 (64-bit)
$end
$timescale
        1ps
$end
$scope module dut $end
$var reg 1 " data/wr_en_fifo4 $end
$var reg 4 # data/data_fifo4_in [3:0] $end
$var reg 1 ' data/rd_en_fifo4 $end
$var reg 4 ( data/data_fifo4_out [3:0] $end
$var reg 4 , data/state34 [3:0] $end
$var reg 4 0 data/next_state34 [3:0] $end
$var reg 1 4 data/fifo34_start $end
$var reg 14 5 data/cnt34 [13:0] $end
$var reg 1 C data/trigger $end
$var reg 1 D data/rd_en_ttt $end
$var reg 64 E data/ttt_out [63:0] $end
$var reg 1 '" data/pre_start $end
$var reg 13 (" data/data_cnt [12:0] $end
$var reg 4 5" data/cnt_ch [3:0] $end
$var reg 1 9" data/adc_A_rd_fifo3 $end
$var reg 13 :" data/adc_A_data_cnt_fifo3 [12:0] $end
$var reg 13 G" data/data_cnt_tem [12:0] $end
$var reg 1 T" data/sd_wr_start $end
$var reg 64 U" data/event_cnt [63:0] $end
$var reg 1 7# data/full2F $end
$var reg 4 8# data/led [3:0] $end
$var reg 64 <# data/ttt [63:0] $end
$var reg 5 |# data/ttt_cnt [4:0] $end
$var reg 1 #$ data/rd_en_fifo5 $end
$var reg 16 $$ data/data_length_fifo5 [15:0] $end
$var reg 4 4$ data/data_fifo5_out [3:0] $end
$var reg 1 8$ data/rd_rst_busy $end
$var reg 1 9$ data/wr_rst_busy $end
$var reg 1 :$ data/full5 $end
$var reg 1 ;$ data/empty5 $end
$var reg 1 <$ _TRIGGER $end
$var reg 1 =$ _WINDOW $end
$var reg 1 >$ _GAP $end
$upscope $end
$enddefinitions $end
#0
$dumpvars
0"
b1101 #
0'
b1101 (
b0 ,
b0 0
14
b0 5
0C
0D
b101010011100011111010101100111001000101000 E
0'"
b111011100 ("
b0 5"
09"
b0 :"
b111011011 G"
0T"
b11101100101100 U"
07#
b0 8#
b101010100011110101101110101000011010101000 <#
b11111 |#
0#$
b1101010110111 $$
b1101 4$
08$
09$
0:$
1;$
0<$
1=$
0>$
$end
#1
b101010100011110101101110101000011010110000 <#
#2
b101010100011110101101110101000011010111000 <#
#3
b101010100011110101101110101000011011000000 <#
#4
b101010100011110101101110101000011011001000 <#
#5
b101010100011110101101110101000011011010000 <#
#6
b101010100011110101101110101000011011011000 <#
#7
b101010100011110101101110101000011011100000 <#
#8
b101010100011110101101110101000011011101000 <#
#9
b101010100011110101101110101000011011110000 <#
#10
b101010100011110101101110101000011011111000 <#
#11
b101010100011110101101110101000011100000000 <#
#12
b101010100011110101101110101000011100001000 <#
#13
b101010100011110101101110101000011100010000 <#
#14
b101010100011110101101110101000011100011000 <#
#15
b101010100011110101101110101000011100100000 <#
#16
b101010100011110101101110101000011100101000 <#
#17
b101010100011110101101110101000011100110000 <#
#18
b101010100011110101101110101000011100111000 <#
#19
b101010100011110101101110101000011101000000 <#
#20
b101010100011110101101110101000011101001000 <#
#21
b101010100011110101101110101000011101010000 <#
#22
b101010100011110101101110101000011101011000 <#
#23
b101010100011110101101110101000011101100000 <#
#24
b101010100011110101101110101000011101101000 <#
#25
b101010100011110101101110101000011101110000 <#
#26
b101010100011110101101110101000011101111000 <#
#27
b101010100011110101101110101000011110000000 <#
#28
b101010100011110101101110101000011110001000 <#
#29
b101010100011110101101110101000011110010000 <#
#30
b101010100011110101101110101000011110011000 <#
#31
b101010100011110101101110101000011110100000 <#
#32
b101010100011110101101110101000011110101000 <#
#33
b101010100011110101101110101000011110110000 <#
#34
b101010100011110101101110101000011110111000 <#
#35
b101010100011110101101110101000011111000000 <#
#36
b101010100011110101101110101000011111001000 <#
#37
b101010100011110101101110101000011111010000 <#
#38
b101010100011110101101110101000011111011000 <#
#39
b101010100011110101101110101000011111100000 <#
#40
b101010100011110101101110101000011111101000 <#
#41
b101010100011110101101110101000011111110000 <#
#42
b101010100011110101101110101000011111111000 <#
#43
b101010100011110101101110101000100000000000 <#
#44
b101010100011110101101110101000100000001000 <#
#45
b101010100011110101101110101000100000010000 <#
#46
b101010100011110101101110101000100000011000 <#
#47
b101010100011110101101110101000100000100000 <#
#48
b101010100011110101101110101000100000101000 <#
#49
b101010100011110101101110101000100000110000 <#
#50
b101010100011110101101110101000100000111000 <#
#51
b101010100011110101101110101000100001000000 <#
#52
b101010100011110101101110101000100001001000 <#
#53
b101010100011110101101110101000100001010000 <#
#54
b101010100011110101101110101000100001011000 <#
#55
b101010100011110101101110101000100001100000 <#
#56
b101010100011110101101110101000100001101000 <#
#57
b101010100011110101101110101000100001110000 <#
#58
b101010100011110101101110101000100001111000 <#
#59
b101010100011110101101110101000100010000000 <#
#60
b101010100011110101101110101000100010001000 <#
#61
b101010100011110101101110101000100010010000 <#
#62
b101010100011110101101110101000100010011000 <#
#63
b101010100011110101101110101000100010100000 <#
#64
b101010100011110101101110101000100010101000 <#
#65
b101010100011110101101110101000100010110000 <#
#66
b101010100011110101101110101000100010111000 <#
#67
b101010100011110101101110101000100011000000 <#
#68
b101010100011110101101110101000100011001000 <#
#69
b101010100011110101101110101000100011010000 <#
#70
b101010100011110101101110101000100011011000 <#
#71
b101010100011110101101110101000100011100000 <#
#72
b101010100011110101101110101000100011101000 <#
#73
b101010100011110101101110101000100011110000 <#
#74
b101010100011110101101110101000100011111000 <#
#75
b101010100011110101101110101000100100000000 <#
#76
b101010100011110101101110101000100100001000 <#
#77
b101010100011110101101110101000100100010000 <#
#78
b101010100011110101101110101000100100011000 <#
#79
b101010100011110101101110101000100100100000 <#
#80
b101010100011110101101110101000100100101000 <#
#81
b101010100011110101101110101000100100110000 <#
#82
b101010100011110101101110101000100100111000 <#
#83
b101010100011110101101110101000100101000000 <#
#84
b101010100011110101101110101000100101001000 <#
#85
b101010100011110101101110101000100101010000 <#
#86
b101010100011110101101110101000100101011000 <#
#87
b101010100011110101101110101000100101100000 <#
#88
b101010100011110101101110101000100101101000 <#
#89
b101010100011110101101110101000100101110000 <#
#90
b101010100011110101101110101000100101111000 <#
#91
b101010100011110101101110101000100110000000 <#
#92
b101010100011110101101110101000100110001000 <#
#93
b101010100011110101101110101000100110010000 <#
#94
b101010100011110101101110101000100110011000 <#
#95
b101010100011110101101110101000100110100000 <#
#96
b101010100011110101101110101000100110101000 <#
#97
b101010100011110101101110101000100110110000 <#
#98
b101010100011110101101110101000100110111000 <#
#99
b101010100011110101101110101000100111000000 <#
#100
b101010100011110101101110101000100111001000 <#
#101
b101010100011110101101110101000100111010000 <#
#102
b101010100011110101101110101000100111011000 <#
#103
b101010100011110101101110101000100111100000 <#
#104
b101010100011110101101110101000100111101000 <#
#105
b101010100011110101101110101000100111110000 <#
#106
b101010100011110101101110101000100111111000 <#
#107
b101010100011110101101110101000101000000000 <#
#108
b101010100011110101101110101000101000001000 <#
#109
b101010100011110101101110101000101000010000 <#
#110
b101010100011110101101110101000101000011000 <#
#111
b101010100011110101101110101000101000100000 <#
#112
b101010100011110101101110101000101000101000 <#
#113
b101010100011110101101110101000101000110000 <#
#114
b101010100011110101101110101000101000111000 <#
#115
b101010100011110101101110101000101001000000 <#
#116
b101010100011110101101110101000101001001000 <#
#117
b101010100011110101101110101000101001010000 <#
#118
b101010100011110101101110101000101001011000 <#
#119
b101010100011110101101110101000101001100000 <#
#120
b101010100011110101101110101000101001101000 <#
#121
b101010100011110101101110101000101001110000 <#
#122
b101010100011110101101110101000101001111000 <#
#123
b101010100011110101101110101000101010000000 <#
#124
b101010100011110101101110101000101010001000 <#
#125
b101010100011110101101110101000101010010000 <#
#126
b101010100011110101101110101000101010011000 <#
#127
b101010100011110101101110101000101010100000 <#
#128
b101010100011110101101110101000101010101000 <#
#129
b101010100011110101101110101000101010110000 <#
#130
b101010100011110101101110101000101010111000 <#
#131
b101010100011110101101110101000101011000000 <#
#132
b101010100011110101101110101000101011001000 <#
#133
b101010100011110101101110101000101011010000 <#
#134
b101010100011110101101110101000101011011000 <#
#135
b101010100011110101101110101000101011100000 <#
#136
b101010100011110101101110101000101011101000 <#
#137
b101010100011110101101110101000101011110000 <#
#138
b101010100011110101101110101000101011111000 <#
#139
b101010100011110101101110101000101100000000 <#
#140
b101010100011110101101110101000101100001000 <#
#141
b101010100011110101101110101000101100010000 <#
#142
b101010100011110101101110101000101100011000 <#
#143
b101010100011110101101110101000101100100000 <#
#144
b101010100011110101101110101000101100101000 <#
#145
b101010100011110101101110101000101100110000 <#
#146
b101010100011110101101110101000101100111000 <#
#147
b101010100011110101101110101000101101000000 <#
#148
b101010100011110101101110101000101101001000 <#
#149
b101010100011110101101110101000101101010000 <#
#150
b101010100011110101101110101000101101011000 <#
#151
b101010100011110101101110101000101101100000 <#
#152
b101010100011110101101110101000101101101000 <#
#153
b101010100011110101101110101000101101110000 <#
#154
b101010100011110101101110101000101101111000 <#
#155
b101010100011110101101110101000101110000000 <#
#156
b101010100011110101101110101000101110001000 <#
#157
b101010100011110101101110101000101110010000 <#
#158
b101010100011110101101110101000101110011000 <#
#159
b101010100011110101101110101000101110100000 <#
#160
b101010100011110101101110101000101110101000 <#
#161
b101010100011110101101110101000101110110000 <#
#162
b101010100011110101101110101000101110111000 <#
#163
b101010100011110101101110101000101111000000 <#
#164
b101010100011110101101110101000101111001000 <#
#165
b101010100011110101101110101000101111010000 <#
#166
b101010100011110101101110101000101111011000 <#
#167
b101010100011110101101110101000101111100000 <#
#168
b101010100011110101101110101000101111101000 <#
#169
b101010100011110101101110101000101111110000 <#
#170
b101010100011110101101110101000101111111000 <#
#171
b101010100011110101101110101000110000000000 <#
#172
b101010100011110101101110101000110000001000 <#
#173
b101010100011110101101110101000110000010000 <#
#174
b101010100011110101101110101000110000011000 <#
#175
b101010100011110101101110101000110000100000 <#
#176
b101010100011110101101110101000110000101000 <#
#177
b101010100011110101101110101000110000110000 <#
#178
b101010100011110101101110101000110000111000 <#
#179
b101010100011110101101110101000110001000000 <#
#180
b101010100011110101101110101000110001001000 <#
#181
b101010100011110101101110101000110001010000 <#
#182
b101010100011110101101110101000110001011000 <#
#183
b101010100011110101101110101000110001100000 <#
#184
b101010100011110101101110101000110001101000 <#
#185
b101010100011110101101110101000110001110000 <#
#186
b101010100011110101101110101000110001111000 <#
#187
b101010100011110101101110101000110010000000 <#
#188
b101010100011110101101110101000110010001000 <#
#189
b101010100011110101101110101000110010010000 <#
#190
b101010100011110101101110101000110010011000 <#
#191
b101010100011110101101110101000110010100000 <#
#192
b101010100011110101101110101000110010101000 <#
#193
b101010100011110101101110101000110010110000 <#
#194
b101010100011110101101110101000110010111000 <#
#195
b101010100011110101101110101000110011000000 <#
#196
b101010100011110101101110101000110011001000 <#
#197
b101010100011110101101110101000110011010000 <#
#198
b101010100011110101101110101000110011011000 <#
#199
b101010100011110101101110101000110011100000 <#
#200
b101010100011110101101110101000110011101000 <#
#201
b101010100011110101101110101000110011110000 <#
#202
b101010100011110101101110101000110011111000 <#
#203
b101010100011110101101110101000110100000000 <#
#204
b101010100011110101101110101000110100001000 <#
#205
b101010100011110101101110101000110100010000 <#
#206
b101010100011110101101110101000110100011000 <#
#207
b101010100011110101101110101000110100100000 <#
#208
b101010100011110101101110101000110100101000 <#
#209
b101010100011110101101110101000110100110000 <#
#210
b101010100011110101101110101000110100111000 <#
#211
b101010100011110101101110101000110101000000 <#
#212
b101010100011110101101110101000110101001000 <#
#213
b101010100011110101101110101000110101010000 <#
#214
b101010100011110101101110101000110101011000 <#
#215
b101010100011110101101110101000110101100000 <#
#216
b101010100011110101101110101000110101101000 <#
#217
b101010100011110101101110101000110101110000 <#
#218
b101010100011110101101110101000110101111000 <#
#219
b101010100011110101101110101000110110000000 <#
#220
b101010100011110101101110101000110110001000 <#
#221
b101010100011110101101110101000110110010000 <#
#222
b101010100011110101101110101000110110011000 <#
#223
b101010100011110101101110101000110110100000 <#
#224
b101010100011110101101110101000110110101000 <#
#225
b101010100011110101101110101000110110110000 <#
#226
b101010100011110101101110101000110110111000 <#
#227
b101010100011110101101110101000110111000000 <#
#228
b101010100011110101101110101000110111001000 <#
#229
b101010100011110101101110101000110111010000 <#
#230
b101010100011110101101110101000110111011000 <#
#231
b101010100011110101101110101000110111100000 <#
#232
b101010100011110101101110101000110111101000 <#
#233
b101010100011110101101110101000110111110000 <#
#234
b101010100011110101101110101000110111111000 <#
#235
b101010100011110101101110101000111000000000 <#
#236
b101010100011110101101110101000111000001000 <#
#237
b101010100011110101101110101000111000010000 <#
#238
b101010100011110101101110101000111000011000 <#
#239
b101010100011110101101110101000111000100000 <#
#240
b101010100011110101101110101000111000101000 <#
#241
b101010100011110101101110101000111000110000 <#
#242
b101010100011110101101110101000111000111000 <#
#243
b101010100011110101101110101000111001000000 <#
#244
b101010100011110101101110101000111001001000 <#
#245
b101010100011110101101110101000111001010000 <#
#246
b101010100011110101101110101000111001011000 <#
#247
b101010100011110101101110101000111001100000 <#
#248
b101010100011110101101110101000111001101000 <#
#249
b101010100011110101101110101000111001110000 <#
#250
b101010100011110101101110101000111001111000 <#
#251
b101010100011110101101110101000111010000000 <#
#252
b101010100011110101101110101000111010001000 <#
#253
b101010100011110101101110101000111010010000 <#
#254
b101010100011110101101110101000111010011000 <#
#255
b101010100011110101101110101000111010100000 <#
#256
b101010100011110101101110101000111010101000 <#
#257
b101010100011110101101110101000111010110000 <#
#258
b101010100011110101101110101000111010111000 <#
#259
b101010100011110101101110101000111011000000 <#
#260
b101010100011110101101110101000111011001000 <#
#261
b101010100011110101101110101000111011010000 <#
#262
b101010100011110101101110101000111011011000 <#
#263
b101010100011110101101110101000111011100000 <#
#264
b101010100011110101101110101000111011101000 <#
#265
b101010100011110101101110101000111011110000 <#
#266
b101010100011110101101110101000111011111000 <#
#267
b101010100011110101101110101000111100000000 <#
#268
b101010100011110101101110101000111100001000 <#
#269
b101010100011110101101110101000111100010000 <#
#270
b101010100011110101101110101000111100011000 <#
#271
b101010100011110101101110101000111100100000 <#
#272
b101010100011110101101110101000111100101000 <#
#273
b101010100011110101101110101000111100110000 <#
#274
b101010100011110101101110101000111100111000 <#
#275
b101010100011110101101110101000111101000000 <#
#276
b101010100011110101101110101000111101001000 <#
#277
b101010100011110101101110101000111101010000 <#
#278
b101010100011110101101110101000111101011000 <#
#279
b101010100011110101101110101000111101100000 <#
#280
b101010100011110101101110101000111101101000 <#
#281
b101010100011110101101110101000111101110000 <#
#282
b101010100011110101101110101000111101111000 <#
#283
b101010100011110101101110101000111110000000 <#
#284
b101010100011110101101110101000111110001000 <#
#285
b101010100011110101101110101000111110010000 <#
#286
b101010100011110101101110101000111110011000 <#
#287
b101010100011110101101110101000111110100000 <#
#288
b101010100011110101101110101000111110101000 <#
#289
b101010100011110101101110101000111110110000 <#
#290
b101010100011110101101110101000111110111000 <#
#291
b101010100011110101101110101000111111000000 <#
#292
b101010100011110101101110101000111111001000 <#
#293
b101010100011110101101110101000111111010000 <#
#294
b101010100011110101101110101000111111011000 <#
#295
b101010100011110101101110101000111111100000 <#
#296
b101010100011110101101110101000111111101000 <#
#297
b101010100011110101101110101000111111110000 <#
#298
b101010100011110101101110101000111111111000 <#
#299
b101010100011110101101110101001000000000000 <#
#300
b101010100011110101101110101001000000001000 <#
#301
b101010100011110101101110101001000000010000 <#
#302
b101010100011110101101110101001000000011000 <#
#303
b101010100011110101101110101001000000100000 <#
#304
b101010100011110101101110101001000000101000 <#
#305
b101010100011110101101110101001000000110000 <#
#306
b101010100011110101101110101001000000111000 <#
#307
b101010100011110101101110101001000001000000 <#
#308
b101010100011110101101110101001000001001000 <#
#309
b101010100011110101101110101001000001010000 <#
#310
b101010100011110101101110101001000001011000 <#
#311
b101010100011110101101110101001000001100000 <#
#312
b101010100011110101101110101001000001101000 <#
#313
b101010100011110101101110101001000001110000 <#
#314
b101010100011110101101110101001000001111000 <#
#315
b101010100011110101101110101001000010000000 <#
#316
b101010100011110101101110101001000010001000 <#
#317
b101010100011110101101110101001000010010000 <#
#318
b101010100011110101101110101001000010011000 <#
#319
b101010100011110101101110101001000010100000 <#
#320
b101010100011110101101110101001000010101000 <#
#321
b101010100011110101101110101001000010110000 <#
#322
b101010100011110101101110101001000010111000 <#
#323
b101010100011110101101110101001000011000000 <#
#324
b101010100011110101101110101001000011001000 <#
#325
b101010100011110101101110101001000011010000 <#
#326
b101010100011110101101110101001000011011000 <#
#327
b101010100011110101101110101001000011100000 <#
#328
b101010100011110101101110101001000011101000 <#
#329
b101010100011110101101110101001000011110000 <#
#330
b101010100011110101101110101001000011111000 <#
#331
b101010100011110101101110101001000100000000 <#
#332
b101010100011110101101110101001000100001000 <#
#333
b101010100011110101101110101001000100010000 <#
#334
b101010100011110101101110101001000100011000 <#
#335
b101010100011110101101110101001000100100000 <#
#336
b101010100011110101101110101001000100101000 <#
#337
b101010100011110101101110101001000100110000 <#
#338
b101010100011110101101110101001000100111000 <#
#339
b101010100011110101101110101001000101000000 <#
#340
b101010100011110101101110101001000101001000 <#
#341
b101010100011110101101110101001000101010000 <#
#342
b101010100011110101101110101001000101011000 <#
#343
b101010100011110101101110101001000101100000 <#
#344
b101010100011110101101110101001000101101000 <#
#345
b101010100011110101101110101001000101110000 <#
#346
b101010100011110101101110101001000101111000 <#
#347
b101010100011110101101110101001000110000000 <#
#348
b101010100011110101101110101001000110001000 <#
#349
b101010100011110101101110101001000110010000 <#
#350
b101010100011110101101110101001000110011000 <#
#351
b101010100011110101101110101001000110100000 <#
#352
b101010100011110101101110101001000110101000 <#
#353
b101010100011110101101110101001000110110000 <#
#354
b101010100011110101101110101001000110111000 <#
#355
b101010100011110101101110101001000111000000 <#
#356
b101010100011110101101110101001000111001000 <#
#357
b101010100011110101101110101001000111010000 <#
#358
b101010100011110101101110101001000111011000 <#
#359
b101010100011110101101110101001000111100000 <#
#360
b101010100011110101101110101001000111101000 <#
#361
b101010100011110101101110101001000111110000 <#
#362
b101010100011110101101110101001000111111000 <#
#363
b101010100011110101101110101001001000000000 <#
#364
b101010100011110101101110101001001000001000 <#
#365
b101010100011110101101110101001001000010000 <#
#366
b101010100011110101101110101001001000011000 <#
#367
b101010100011110101101110101001001000100000 <#
#368
b101010100011110101101110101001001000101000 <#
#369
b101010100011110101101110101001001000110000 <#
#370
b101010100011110101101110101001001000111000 <#
#371
b101010100011110101101110101001001001000000 <#
#372
b101010100011110101101110101001001001001000 <#
#373
b101010100011110101101110101001001001010000 <#
#374
b101010100011110101101110101001001001011000 <#
#375
b101010100011110101101110101001001001100000 <#
#376
b101010100011110101101110101001001001101000 <#
#377
b101010100011110101101110101001001001110000 <#
#378
b101010100011110101101110101001001001111000 <#
#379
b101010100011110101101110101001001010000000 <#
#380
b101010100011110101101110101001001010001000 <#
#381
b101010100011110101101110101001001010010000 <#
#382
b101010100011110101101110101001001010011000 <#
#383
b101010100011110101101110101001001010100000 <#
#384
b101010100011110101101110101001001010101000 <#
#385
b101010100011110101101110101001001010110000 <#
#386
b101010100011110101101110101001001010111000 <#
#387
b101010100011110101101110101001001011000000 <#
#388
b101010100011110101101110101001001011001000 <#
#389
b101010100011110101101110101001001011010000 <#
#390
b101010100011110101101110101001001011011000 <#
#391
b101010100011110101101110101001001011100000 <#
#392
b101010100011110101101110101001001011101000 <#
#393
b101010100011110101101110101001001011110000 <#
#394
b101010100011110101101110101001001011111000 <#
#395
b101010100011110101101110101001001100000000 <#
#396
b101010100011110101101110101001001100001000 <#
#397
b101010100011110101101110101001001100010000 <#
#398
b101010100011110101101110101001001100011000 <#
#399
b101010100011110101101110101001001100100000 <#
#400
b101010100011110101101110101001001100101000 <#
#401
b101010100011110101101110101001001100110000 <#
#402
b101010100011110101101110101001001100111000 <#
#403
b101010100011110101101110101001001101000000 <#
#404
b101010100011110101101110101001001101001000 <#
#405
b101010100011110101101110101001001101010000 <#
#406
b101010100011110101101110101001001101011000 <#
#407
b101010100011110101101110101001001101100000 <#
#408
b101010100011110101101110101001001101101000 <#
#409
b101010100011110101101110101001001101110000 <#
#410
b101010100011110101101110101001001101111000 <#
#411
b101010100011110101101110101001001110000000 <#
#412
b101010100011110101101110101001001110001000 <#
#413
b101010100011110101101110101001001110010000 <#
#414
b101010100011110101101110101001001110011000 <#
#415
b101010100011110101101110101001001110100000 <#
#416
b101010100011110101101110101001001110101000 <#
#417
b101010100011110101101110101001001110110000 <#
#418
b101010100011110101101110101001001110111000 <#
#419
b101010100011110101101110101001001111000000 <#
#420
b101010100011110101101110101001001111001000 <#
#421
b101010100011110101101110101001001111010000 <#
#422
b101010100011110101101110101001001111011000 <#
#423
b101010100011110101101110101001001111100000 <#
#424
b101010100011110101101110101001001111101000 <#
#425
b101010100011110101101110101001001111110000 <#
#426
b101010100011110101101110101001001111111000 <#
#427
b101010100011110101101110101001010000000000 <#
#428
b101010100011110101101110101001010000001000 <#
#429
b101010100011110101101110101001010000010000 <#
#430
b101010100011110101101110101001010000011000 <#
#431
b101010100011110101101110101001010000100000 <#
#432
b101010100011110101101110101001010000101000 <#
#433
b101010100011110101101110101001010000110000 <#
#434
b101010100011110101101110101001010000111000 <#
#435
b101010100011110101101110101001010001000000 <#
#436
b101010100011110101101110101001010001001000 <#
#437
b101010100011110101101110101001010001010000 <#
#438
b101010100011110101101110101001010001011000 <#
#439
b101010100011110101101110101001010001100000 <#
#440
b101010100011110101101110101001010001101000 <#
#441
b101010100011110101101110101001010001110000 <#
#442
b101010100011110101101110101001010001111000 <#
#443
b101010100011110101101110101001010010000000 <#
#444
b101010100011110101101110101001010010001000 <#
#445
b101010100011110101101110101001010010010000 <#
#446
b101010100011110101101110101001010010011000 <#
#447
b101010100011110101101110101001010010100000 <#
#448
b101010100011110101101110101001010010101000 <#
#449
b101010100011110101101110101001010010110000 <#
#450
b101010100011110101101110101001010010111000 <#
#451
b101010100011110101101110101001010011000000 <#
#452
b101010100011110101101110101001010011001000 <#
#453
b101010100011110101101110101001010011010000 <#
#454
b101010100011110101101110101001010011011000 <#
#455
b101010100011110101101110101001010011100000 <#
#456
b101010100011110101101110101001010011101000 <#
#457
b101010100011110101101110101001010011110000 <#
#458
b101010100011110101101110101001010011111000 <#
#459
b101010100011110101101110101001010100000000 <#
#460
b101010100011110101101110101001010100001000 <#
#461
b101010100011110101101110101001010100010000 <#
#462
b101010100011110101101110101001010100011000 <#
#463
b101010100011110101101110101001010100100000 <#
#464
b101010100011110101101110101001010100101000 <#
#465
b101010100011110101101110101001010100110000 <#
#466
b101010100011110101101110101001010100111000 <#
#467
b101010100011110101101110101001010101000000 <#
#468
b101010100011110101101110101001010101001000 <#
#469
b101010100011110101101110101001010101010000 <#
#470
b101010100011110101101110101001010101011000 <#
#471
b101010100011110101101110101001010101100000 <#
#472
b101010100011110101101110101001010101101000 <#
#473
b101010100011110101101110101001010101110000 <#
#474
b101010100011110101101110101001010101111000 <#
#475
b101010100011110101101110101001010110000000 <#
#476
b101010100011110101101110101001010110001000 <#
#477
b101010100011110101101110101001010110010000 <#
#478
b101010100011110101101110101001010110011000 <#
#479
b101010100011110101101110101001010110100000 <#
#480
b101010100011110101101110101001010110101000 <#
#481
b101010100011110101101110101001010110110000 <#
#482
b101010100011110101101110101001010110111000 <#
#483
b101010100011110101101110101001010111000000 <#
#484
b101010100011110101101110101001010111001000 <#
#485
b101010100011110101101110101001010111010000 <#
#486
b101010100011110101101110101001010111011000 <#
#487
b101010100011110101101110101001010111100000 <#
#488
b101010100011110101101110101001010111101000 <#
#489
b101010100011110101101110101001010111110000 <#
#490
b101010100011110101101110101001010111111000 <#
#491
b101010100011110101101110101001011000000000 <#
#492
b101010100011110101101110101001011000001000 <#
#493
b101010100011110101101110101001011000010000 <#
#494
b101010100011110101101110101001011000011000 <#
#495
b101010100011110101101110101001011000100000 <#
#496
b101010100011110101101110101001011000101000 <#
#497
b101010100011110101101110101001011000110000 <#
#498
b101010100011110101101110101001011000111000 <#
#499
b101010100011110101101110101001011001000000 <#
#500
b101010100011110101101110101001011001001000 <#
#501
b101010100011110101101110101001011001010000 <#
#502
b101010100011110101101110101001011001011000 <#
#503
b101010100011110101101110101001011001100000 <#
#504
b101010100011110101101110101001011001101000 <#
#505
b101010100011110101101110101001011001110000 <#
#506
b101010100011110101101110101001011001111000 <#
#507
b101010100011110101101110101001011010000000 <#
#508
b101010100011110101101110101001011010001000 <#
#509
b101010100011110101101110101001011010010000 <#
#510
b101010100011110101101110101001011010011000 <#
#511
b101010100011110101101110101001011010100000 <#
#512
b101010100011110101101110101001011010101000 <#
#513
b101010100011110101101110101001011010110000 <#
#514
b101010100011110101101110101001011010111000 <#
#515
b101010100011110101101110101001011011000000 <#
#516
b101010100011110101101110101001011011001000 <#
#517
b101010100011110101101110101001011011010000 <#
#518
b101010100011110101101110101001011011011000 <#
#519
b101010100011110101101110101001011011100000 <#
#520
b101010100011110101101110101001011011101000 <#
#521
b101010100011110101101110101001011011110000 <#
#522
b101010100011110101101110101001011011111000 <#
#523
b101010100011110101101110101001011100000000 <#
#524
b101010100011110101101110101001011100001000 <#
#525
b101010100011110101101110101001011100010000 <#
#526
b101010100011110101101110101001011100011000 <#
#527
b101010100011110101101110101001011100100000 <#
#528
b101010100011110101101110101001011100101000 <#
#529
b101010100011110101101110101001011100110000 <#
#530
b101010100011110101101110101001011100111000 <#
#531
b101010100011110101101110101001011101000000 <#
#532
b101010100011110101101110101001011101001000 <#
#533
b101010100011110101101110101001011101010000 <#
#534
b101010100011110101101110101001011101011000 <#
#535
b101010100011110101101110101001011101100000 <#
#536
b101010100011110101101110101001011101101000 <#
#537
b101010100011110101101110101001011101110000 <#
#538
b101010100011110101101110101001011101111000 <#
#539
b101010100011110101101110101001011110000000 <#
#540
b101010100011110101101110101001011110001000 <#
#541
b101010100011110101101110101001011110010000 <#
#542
b101010100011110101101110101001011110011000 <#
#543
b101010100011110101101110101001011110100000 <#
#544
b101010100011110101101110101001011110101000 <#
#545
b101010100011110101101110101001011110110000 <#
#546
b101010100011110101101110101001011110111000 <#
#547
b101010100011110101101110101001011111000000 <#
#548
b101010100011110101101110101001011111001000 <#
#549
b101010100011110101101110101001011111010000 <#
#550
b101010100011110101101110101001011111011000 <#
#551
b101010100011110101101110101001011111100000 <#
#552
b101010100011110101101110101001011111101000 <#
#553
b101010100011110101101110101001011111110000 <#
#554
b101010100011110101101110101001011111111000 <#
#555
b101010100011110101101110101001100000000000 <#
#556
b101010100011110101101110101001100000001000 <#
#557
b101010100011110101101110101001100000010000 <#
#558
b101010100011110101101110101001100000011000 <#
#559
b101010100011110101101110101001100000100000 <#
#560
b101010100011110101101110101001100000101000 <#
#561
b101010100011110101101110101001100000110000 <#
#562
b101010100011110101101110101001100000111000 <#
#563
b101010100011110101101110101001100001000000 <#
#564
b101010100011110101101110101001100001001000 <#
#565
b101010100011110101101110101001100001010000 <#
#566
b101010100011110101101110101001100001011000 <#
#567
b101010100011110101101110101001100001100000 <#
#568
b101010100011110101101110101001100001101000 <#
#569
b101010100011110101101110101001100001110000 <#
#570
b101010100011110101101110101001100001111000 <#
#571
b101010100011110101101110101001100010000000 <#
#572
b101010100011110101101110101001100010001000 <#
#573
b101010100011110101101110101001100010010000 <#
#574
b101010100011110101101110101001100010011000 <#
#575
b101010100011110101101110101001100010100000 <#
#576
b101010100011110101101110101001100010101000 <#
#577
b101010100011110101101110101001100010110000 <#
#578
b101010100011110101101110101001100010111000 <#
#579
b101010100011110101101110101001100011000000 <#
#580
b101010100011110101101110101001100011001000 <#
#581
b101010100011110101101110101001100011010000 <#
#582
b101010100011110101101110101001100011011000 <#
#583
b101010100011110101101110101001100011100000 <#
#584
b101010100011110101101110101001100011101000 <#
#585
b101010100011110101101110101001100011110000 <#
#586
b101010100011110101101110101001100011111000 <#
#587
b101010100011110101101110101001100100000000 <#
#588
b101010100011110101101110101001100100001000 <#
#589
b101010100011110101101110101001100100010000 <#
#590
b101010100011110101101110101001100100011000 <#
#591
b101010100011110101101110101001100100100000 <#
#592
b101010100011110101101110101001100100101000 <#
#593
b101010100011110101101110101001100100110000 <#
#594
b101010100011110101101110101001100100111000 <#
#595
b101010100011110101101110101001100101000000 <#
#596
b101010100011110101101110101001100101001000 <#
#597
b101010100011110101101110101001100101010000 <#
#598
b101010100011110101101110101001100101011000 <#
#599
b101010100011110101101110101001100101100000 <#
#600
b101010100011110101101110101001100101101000 <#
#601
b101010100011110101101110101001100101110000 <#
#602
b101010100011110101101110101001100101111000 <#
#603
b101010100011110101101110101001100110000000 <#
#604
b101010100011110101101110101001100110001000 <#
#605
b101010100011110101101110101001100110010000 <#
#606
b101010100011110101101110101001100110011000 <#
#607
b101010100011110101101110101001100110100000 <#
#608
b101010100011110101101110101001100110101000 <#
#609
b101010100011110101101110101001100110110000 <#
#610
b101010100011110101101110101001100110111000 <#
#611
b101010100011110101101110101001100111000000 <#
#612
b101010100011110101101110101001100111001000 <#
#613
b101010100011110101101110101001100111010000 <#
#614
b101010100011110101101110101001100111011000 <#
#615
b101010100011110101101110101001100111100000 <#
#616
b101010100011110101101110101001100111101000 <#
#617
b101010100011110101101110101001100111110000 <#
#618
b101010100011110101101110101001100111111000 <#
#619
b101010100011110101101110101001101000000000 <#
#620
b101010100011110101101110101001101000001000 <#
#621
b101010100011110101101110101001101000010000 <#
#622
b101010100011110101101110101001101000011000 <#
#623
b101010100011110101101110101001101000100000 <#
#624
b101010100011110101101110101001101000101000 <#
#625
b101010100011110101101110101001101000110000 <#
#626
b101010100011110101101110101001101000111000 <#
#627
b101010100011110101101110101001101001000000 <#
#628
b101010100011110101101110101001101001001000 <#
#629
b101010100011110101101110101001101001010000 <#
#630
b101010100011110101101110101001101001011000 <#
#631
b101010100011110101101110101001101001100000 <#
