.Xil/Vivado-394996-DESKTOP-3JDODKJ/hw_ila_data_11/zip_work/waveform.vcd
$date
        2024-Aug-02 20:02:00
$end
$version
        Vivado v2017.4 (64-bit)
$end
$timescale
        1ps
$end
$scope module dut $end
$var reg 4 " data/adc_F_data_package/state23 [3:0] $end
$var reg 4 & data/adc_F_data_package/next_state23 [3:0] $end
$var reg 12 * data/adc_F_data_package/adc_data [11:0] $end
$var reg 12 6 data/adc_F_data_package/fifo1 [11:0] $end
$var reg 12 B data/adc_F_data_package/data_fifo2_out [11:0] $end
$var reg 4 N data/adc_F_data_package/data_fifo3_in [3:0] $end
$var reg 1 R data/adc_F_data_package/rd_fifo2 $end
$var reg 8 S data/adc_F_data_package/data_cnt_fifo2 [7:0] $end
$var reg 8 [ data/adc_F_data_package/data_cnt_fifo2_use [7:0] $end
$var reg 12 c data/adc_F_data_package/cnt23 [11:0] $end
$var reg 1 o data/adc_F_data_package/rd_fifo1_1 $end
$var reg 1 p data/adc_F_data_package/rd_fifo1 $end
$var reg 1 q data/adc_F_data_package/clk_125m $end
$var reg 1 r data/adc_F_data_package/full $end
$var reg 1 s data/adc_F_data_package/empty $end
$var reg 1 t data/adc_F_data_package/wr_rst_busy $end
$var reg 1 u data/adc_F_data_package/rd_rst_busy $end
$var reg 1 v data/adc_F_data_package/wr_fifo3 $end
$var reg 1 w data/adc_F_data_package/fifo23_end $end
$var reg 1 x data/adc_F_data_package/rd_fifo3 $end
$var reg 10 y data/adc_F_data_package/data_cnt_fifo3 [9:0] $end
$var reg 4 %" data/adc_F_data_package/data_fifo3_out [3:0] $end
$var reg 1 )" data/adc_F_data_package/full3 $end
$var reg 1 *" data/adc_F_data_package/empty3 $end
$var reg 1 +" _TRIGGER $end
$var reg 1 ," _WINDOW $end
$var reg 1 -" _GAP $end
$upscope $end
$enddefinitions $end
#0
$dumpvars
b0 "
b0 &
b11111011111 *
b11111011110 6
b11111000011 B
b0 N
0R
b1000100 S
b0 [
b0 c
0o
0p
1q
0r
0s
0t
0u
0v
1w
0x
b0 y
b100 %"
0)"
1*"
0+"
1,"
0-"
$end
#1
b11111100000 *
b11111100000 6
#2
b11111011110 6
#3
b11111011111 *
b11111011111 6
#4
b11111100000 *
#6
b11111100001 *
b11111100000 6
#7
b11111011111 6
#8
b11111100010 *
b11111100000 6
#10
b11111011111 6
#11
b11111100001 *
b11111100001 6
#12
b11111100000 *
b11111100000 6
#13
b11111100001 *
b11111011111 6
#14
b11111100000 *
b11111100000 6
#15
b11111011111 *
b11111011111 6
#16
b11111100000 6
#17
b11111011101 *
#18
b11111011110 *
b11111011111 6
#19
b11111011101 *
b11111100000 6
#20
b11111011100 *
#21
b11111011110 *
b11111100001 6
#22
b11111011111 *
#23
b11111011110 *
b11111100010 6
#24
b11111100000 *
#25
b11111011110 *
#26
b11111100000 *
b11111100001 6
#27
b11111011111 *
b11111100000 6
#28
b11111100000 *
b11111100001 6
#29
b11111011111 *
b11111100000 6
#30
b11111100000 *
b11111011111 6
#32
b11111011111 *
b11111011101 6
#33
b11111011110 *
b11111011110 6
#34
b11111011111 *
b11111011101 6
#35
b11111011100 6
#36
b11111100000 *
b11111011110 6
#37
b11111011111 *
b11111011111 6
#38
b11111100000 *
b11111011110 6
#39
b11111011111 *
b11111100000 6
#40
b11111011110 6
#41
b11111100001 *
b11111100000 6
#42
b11111011111 *
b11111011111 6
#43
b11111100001 *
b11111100000 6
#44
b11111100000 *
b11111011111 6
#45
b11111100000 6
#46
b11111100001 *
#47
b11111100000 *
b11111011111 6
#48
b11111011110 6
#49
b11111100001 *
b11111011111 6
#50
b11111011111 *
#51
b11111100001 *
b11111100000 6
#52
b11111011111 *
b11111011111 6
#53
b11111100000 *
b11111100000 6
#54
b11111011111 *
b11111011111 6
#55
b11111011110 *
#56
b11111011101 *
b11111100001 6
#57
b11111011011 *
b11111011111 6
#58
b11111100001 6
#59
b11111011010 *
b11111100000 6
#60
b11111011001 *
#61
b11111011010 *
b11111100001 6
#62
b11111011110 *
b11111100000 6
#63
b11111011001 *
#64
b11111011100 *
b11111100001 6
#65
b11111011101 *
b11111011111 6
#66
b11111011011 *
b11111100001 6
#67
b11111011101 *
b11111011111 6
#68
b11111011100 *
b11111100000 6
#69
b11111011111 6
#70
b11111011101 *
b11111011110 6
#71
b11111011100 *
b11111011101 6
#72
b11111011101 *
b11111011011 6
#73
b11111011100 *
#74
b11111011101 *
b11111011010 6
#75
b11111011110 *
b11111011001 6
#76
b11111011010 6
#77
b11111011101 *
b11111011110 6
#78
b11111011001 6
#79
b11111011110 *
b11111011100 6
#80
b11111011101 *
b11111011101 6
#81
b11111011011 6
#82
b11111011110 *
b11111011101 6
#83
b11111011111 *
b11111011100 6
#84
b11111011110 *
#85
b11111011101 6
#86
b11111011111 *
b11111011100 6
#87
b11111011101 6
#88
b11111011100 6
#89
b11111011101 6
#90
b11111011110 6
#92
b11111100000 *
b11111011101 6
#94
b11111011111 *
b11111011110 6
#95
b11111011101 6
#96
b11111011110 *
#97
b11111011100 *
b11111011110 6
#98
b11111011101 *
b11111011111 6
#99
b11111011110 6
#100
b11111011100 *
#101
b11111011011 *
b11111011111 6
#102
b11111011100 *
#103
b11111011110 *
#104
b11111011100 *
#105
b11111011111 *
#106
b11111011101 *
#107
b11111011111 *
b11111100000 6
#108
b11111100000 *
#109
b11111011110 *
b11111011111 6
#110
b11111011111 *
#111
b11111100000 *
b11111011110 6
#112
b11111011100 6
#113
b11111011101 6
#115
b11111011100 6
#116
b11111011011 6
#117
b11111100001 *
b11111011100 6
#118
b11111011110 6
#119
b11111011100 6
#120
b11111100010 *
b11111011111 6
#121
b11111011101 6
#122
b11111100001 *
b11111011111 6
#123
b11111100000 6
#124
b11111100010 *
b11111011110 6
#125
b11111011111 6
#126
b11111100100 *
b11111100000 6
#127
b11111100011 *
#128
b11111100010 *
#129
b11111100100 *
#130
b11111100011 *
#131
b11111100100 *
#132
b11111100011 *
b11111100001 6
#134
b11111100100 *
#135
b11111100011 *
b11111100010 6
#136
b11111100010 *
#137
b11111100000 *
b11111100001 6
#139
b11111100010 6
#140
b11111011110 *
#141
b11111011101 *
b11111100100 6
#142
b11111100011 6
#143
b11111100011 *
b11111100010 6
#144
b11111011110 *
b11111100100 6
#145
b11111100000 *
b11111100011 6
#146
b11111100001 *
b11111100100 6
#147
b11111011111 *
b11111100011 6
#148
b11111100001 *
#149
b11111100000 *
b11111100100 6
#150
b11111100011 6
#151
b11111100001 *
b11111100010 6
#152
b11111100000 *
b11111100000 6
#153
b11111100001 *
#154
b11111011111 *
#155
b11111100000 *
b11111011110 6
#156
b11111100001 *
b11111011101 6
#158
b11111100000 *
b11111100011 6
#159
b11111100001 *
b11111011110 6
#160
b11111100000 6
#161
b11111100001 6
#162
b11111011111 6
#163
b11111100010 *
b11111100001 6
#164
b11111100000 6
#165
b11111100001 *
#166
b11111100001 6
#167
b11111100010 *
b11111100000 6
#168
b11111100001 6
#169
b11111011111 6
#170
b11111100001 *
b11111100000 6
#171
b11111100010 *
b11111100001 6
#173
b11111100001 *
b11111100000 6
#174
b11111100010 *
b11111100001 6
#176
b11111100001 *
#178
b11111011111 *
b11111100010 6
#179
b11111011110 *
#180
b11111100001 6
#182
b11111100010 6
#184
b11111100001 *
#185
b11111011110 *
b11111100001 6
#186
b11111100001 *
b11111100010 6
#187
b11111011111 *
#188
b11111100000 *
b11111100001 6
#189
b11111100010 6
#190
b11111100001 *
#191
b11111100000 *
b11111100001 6
#193
b11111011111 6
#194
b11111100001 *
b11111011110 6
#199
b11111100001 6
#200
b11111011110 6
#201
b11111100001 6
#202
b11111011111 6
#203
b11111100010 *
b11111100000 6
#204
b11111100001 *
#205
b11111100010 *
b11111100001 6
#206
b11111100000 6
#209
b11111100001 6
#211
b11111100001 *
#212
b11111100010 *
#214
b11111100100 *
#215
b11111100011 *
#216
b11111100010 *
#217
b11111100001 *
#218
b11111100000 *
b11111100010 6
#219
b11111011111 *
b11111100001 6
#220
b11111011110 *
b11111100010 6
#222
b11111011101 *
#224
b11111100010 *
#225
b11111011100 *
#226
b11111100000 *
b11111100001 6
#227
b11111100010 6
#228
b11111011111 *
#229
b11111100001 *
b11111100100 6
#230
b11111100011 6
#231
b11111100000 *
b11111100010 6
#232
b11111100001 6
#233
b11111011110 *
b11111100000 6
#234
b11111100001 *
b11111011111 6
#235
b11111011110 6
#237
b11111100000 *
b11111011101 6
#238
b11111100001 *
#239
b11111100000 *
b11111100010 6
#240
b11111100001 *
b11111011100 6
#241
b11111100000 *
b11111100000 6
#242
b11111100001 *
#243
b11111100000 *
b11111011111 6
#244
b11111100010 *
b11111100001 6
#245
b11111100001 *
#246
b11111100000 6
#248
b11111011110 6
#249
b11111100001 6
#252
b11111100000 6
#253
b11111100001 6
#254
b11111100010 *
b11111100000 6
#255
b11111100001 6
#256
b11111100001 *
b11111100000 6
#257
b11111100000 *
b11111100001 6
#258
b11111100000 6
#259
b11111100010 6
#260
b11111011111 *
b11111100001 6
#261
b11111011110 *
#262
b11111011101 *
#265
b11111011111 *
#266
b11111011101 *
#267
b11111100001 *
#268
b11111011111 *
#269
b11111100000 *
b11111100010 6
#270
b11111100001 *
#271
b11111100000 *
b11111100001 6
#272
b11111100000 6
#274
b11111100001 *
#275
b11111100000 *
b11111011111 6
#276
b11111100001 *
b11111011110 6
#277
b11111011101 6
#278
b11111100000 *
#279
b11111100001 *
#280
b11111011111 6
#281
b11111100000 *
b11111011101 6
#282
b11111100001 *
b11111100001 6
#283
b11111100000 *
b11111011111 6
#284
b11111100010 *
b11111100000 6
#285
b11111100000 *
b11111100001 6
#286
b11111100010 *
b11111100000 6
#288
b11111100001 *
#289
b11111100001 6
#290
b11111100010 *
b11111100000 6
#291
b11111100001 6
#292
b11111100001 *
#293
b11111100010 *
b11111100000 6
#294
b11111100001 6
#296
b11111100000 6
#297
b11111100001 6
#298
b11111100001 *
b11111100000 6
#299
b11111100000 *
b11111100010 6
#300
b11111011111 *
b11111100000 6
#301
b11111011110 *
b11111100010 6
#303
b11111011101 *
b11111100001 6
#304
b11111011110 *
#305
b11111100010 *
b11111100010 6
#306
b11111011111 *
#307
b11111100001 6
#308
b11111100010 6
#309
b11111100000 *
#313
b11111100001 *
b11111100001 6
#314
b11111100000 *
b11111100000 6
#315
b11111011111 6
#316
b11111100001 *
b11111011110 6
#318
b11111011101 6
#319
b11111011111 *
b11111011110 6
#320
b11111100001 *
b11111100010 6
#321
b11111011111 6
#322
b11111100000 *
#324
b11111100001 *
b11111100000 6
#325
b11111100000 *
#326
b11111100001 *
#328
b11111011111 *
b11111100001 6
#329
b11111100000 *
b11111100000 6
#330
b11111100001 *
#331
b11111100000 *
b11111100001 6
#332
b11111100001 *
#333
b11111100000 *
#334
b11111100010 *
b11111011111 6
#335
b11111100000 *
b11111100001 6
#336
b11111100001 *
#337
b11111100000 6
#338
b11111100000 *
#339
b11111100001 *
b11111100001 6
#340
b11111011110 *
b11111100000 6
#341
b11111011111 *
b11111100001 6
#342
b11111011101 *
#343
b11111011111 6
#344
b11111011100 *
b11111100000 6
#345
b11111011011 *
b11111100001 6
#346
b11111100001 *
b11111100000 6
#347
b11111011101 *
b11111100001 6
#348
b11111011111 *
b11111100000 6
#349
b11111100010 6
#350
b11111100000 6
#351
b11111100000 *
b11111100001 6
#352
b11111011110 *
#353
b11111011111 *
b11111100000 6
#354
b11111100001 6
#355
b11111011110 6
#356
b11111010101 *
b11111011111 6
#357
b11110011011 *
b11111011101 6
#358
b11100011011 *
#359
b11011011000 *
b11111011100 6
#360
b11001101111 *
b11111011011 6
#361
b11000001111 *
b11111100001 6
#362
b10111010001 *
b11111011101 6
#363
b10101110110 *
b11111011111 6
#364
b10100111101 *
#365
b10100010100 *
#366
b10011001111 *
b11111100000 6
#367
b10010111011 *
b11111011110 6
#368
b10010011001 *
b11111011111 6
1o
1p
#369
b10001110001 *
b1000101 S
#370
b10001110000 *
b1000110 S
#371
b10001010100 *
b11111010101 6
b1000111 S
#372
b10001001100 *
b11110011011 6
b1001000 S
#373
b10001001000 *
b11100011011 6
b1001001 S
#374
b10000111011 *
b11011011000 6
b1001010 S
#375
b10001000011 *
b11001101111 6
b1001011 S
#376
b10001000000 *
b11000001111 6
b1001100 S
#377
b10001000100 *
b10111010001 6
b1001101 S
#378
b10001001110 *
b10101110110 6
b1001110 S
#379
b10001010001 *
b10100111101 6
b1001111 S
#380
b10001011100 *
b10100010100 6
b1010000 S
#381
b10001100111 *
b10011001111 6
b1010001 S
#382
b10001110010 *
b10010111011 6
b1010010 S
#383
b10010000010 *
b10010011001 6
b1010011 S
#384
b10010001111 *
b10001110001 6
b1010100 S
#385
b10010011111 *
b10001110000 6
b1010101 S
#386
b10010110100 *
b10001010100 6
b1010110 S
#387
b10011000100 *
b10001001100 6
b1010111 S
#388
b10011010100 *
b10001001000 6
b1011000 S
#389
b10011101010 *
b10000111011 6
b1011001 S
#390
b10011111010 *
b10001000011 6
b1011010 S
#391
b10100001110 *
b10001000000 6
b1011011 S
#392
b10100100000 *
b10001000100 6
b1011100 S
#393
b10100110010 *
b10001001110 6
b1011101 S
#394
b10101000100 *
b10001010001 6
b1011110 S
#395
b10101010111 *
b10001011100 6
b1011111 S
#396
b10101100111 *
b10001100111 6
b1100000 S
#397
b10101111010 *
b10001110010 6
b1100001 S
#398
b10110001101 *
b10010000010 6
b1100010 S
#399
b10110011100 *
b10010001111 6
b1100011 S
#400
b10110110000 *
b10010011111 6
b1100100 S
#401
b10111000000 *
b10010110100 6
b1100101 S
#402
b10111001111 *
b10011000100 6
b1100110 S
#403
b10111100000 *
b10011010100 6
b1100111 S
#404
b10111101110 *
b10011101010 6
b1101000 S
#405
b11000000001 *
b10011111010 6
b1101001 S
#406
b11000001101 *
b10100001110 6
b1101010 S
#407
b11000100000 *
b10100100000 6
b1101011 S
#408
b11000101100 *
b10100110010 6
b1101100 S
#409
b11000111001 *
b10101000100 6
b1101101 S
#410
b11001001001 *
b10101010111 6
b1101110 S
#411
b11001010011 *
b10101100111 6
b1101111 S
#412
b11001100001 *
b10101111010 6
b1110000 S
#413
b11001101100 *
b10110001101 6
b1110001 S
#414
b11001111000 *
b10110011100 6
b1110010 S
#415
b11010000101 *
b10110110000 6
b1110011 S
#416
b11010001101 *
b10111000000 6
b1110100 S
#417
b11010010111 *
b10111001111 6
b1110101 S
#418
b11010100011 *
b10111100000 6
b1110110 S
#419
b11010101011 *
b10111101110 6
b1110111 S
#420
b11010110110 *
b11000000001 6
b1111000 S
#421
b11010111100 *
b11000001101 6
b1111001 S
#422
b11011000101 *
b11000100000 6
b1111010 S
#423
b11011001110 *
b11000101100 6
b1111011 S
#424
b11011010100 *
b11000111001 6
b1111100 S
#425
b11011011110 *
b11001001001 6
b1111101 S
#426
b11011100101 *
b11001010011 6
b1111110 S
#427
b11011110011 *
b11001100001 6
b1111111 S
#428
b11011111000 *
b11001101100 6
b10000000 S
#429
b11100000001 *
b11001111000 6
b10000001 S
#430
b11100001010 *
b11010000101 6
b10000010 S
#431
b11100001110 *
b11010001101 6
b10000011 S
#432
b11100011000 *
b11010010111 6
b10000100 S
#433
b11100011100 *
b11010100011 6
b10000101 S
#434
b11100100011 *
b11010101011 6
b10000110 S
#435
b11100101010 *
b11010110110 6
b10000111 S
#436
b11100101111 *
b11010111100 6
b10001000 S
#437
b11100110110 *
b11011000101 6
b10001001 S
#438
b11100111010 *
b11011001110 6
b10001010 S
#439
b11101000000 *
b11011010100 6
b10001011 S
#440
b11101000101 *
b11011011110 6
b10001100 S
#441
b11101001011 *
b11011100101 6
b10001101 S
#442
b11101010001 *
b11011110011 6
b10001110 S
#443
b11101010100 *
b11011111000 6
b10001111 S
#444
b11101011010 *
b11100000001 6
b10010000 S
#445
b11101011110 *
b11100001010 6
b10010001 S
#446
b11101100011 *
b11100001110 6
b10010010 S
#447
b11101100110 *
b11100011000 6
b10010011 S
#448
b11101101011 *
b11100011100 6
b10010100 S
#449
b11101101110 *
b11100100011 6
b10010101 S
#450
b11101110011 *
b11100101010 6
b10010110 S
#451
b11101110111 *
b11100101111 6
b10010111 S
#452
b11101111011 *
b11100110110 6
b10011000 S
#453
b11101111110 *
b11100111010 6
b10011001 S
#454
b11110000000 *
b11101000000 6
b10011010 S
#455
b11110000100 *
b11101000101 6
b10011011 S
#456
b11110000111 *
b11101001011 6
b10011100 S
#457
b11110001010 *
b11101010001 6
b10011101 S
#458
b11110001100 *
b11101010100 6
b10011110 S
#459
b11110010000 *
b11101011010 6
b10011111 S
#460
b11110001111 *
b11101011110 6
b10100000 S
#461
b11110010010 *
b11101100011 6
b10100001 S
#462
b11101100110 6
b10100010 S
#463
b11110010011 *
b11101101011 6
b10100011 S
#464
b11110010101 *
b11101101110 6
b10100100 S
#465
b11110010111 *
b11101110011 6
b10100101 S
#466
b11110011001 *
b11101110111 6
b10100110 S
#467
b11110011111 *
b11101111011 6
b10100111 S
#468
b11110100011 *
b11101111110 6
b10101000 S
#469
b11110100010 *
b11110000000 6
b10101001 S
#470
b11110100111 *
b11110000100 6
b10101010 S
#471
b11110000111 6
b10101011 S
#472
b11110101001 *
b11110001010 6
b10101100 S
#473
b11110101100 *
b11110001100 6
b10101101 S
#474
b11110101101 *
b11110010000 6
b10101110 S
#475
b11110101110 *
b11110001111 6
b10101111 S
#476
b11110110000 *
b11110010010 6
b10110000 S
#477
b10110001 S
#478
b11110110011 *
b11110010011 6
b10110010 S
#479
b11110110100 *
b11110010101 6
b10110011 S
#480
b11110110101 *
b11110010111 6
b10110100 S
#481
b11110011001 6
b10110101 S
#482
b11110110111 *
b11110011111 6
b10110110 S
#483
b11110111001 *
b11110100011 6
b10110111 S
#484
b11110111011 *
b11110100010 6
b10111000 S
#485
b11110100111 6
b10111001 S
#486
b11110111101 *
b10111010 S
#487
b11110101001 6
b10111011 S
#488
b11110111110 *
b11110101100 6
b10111100 S
#489
b11110111111 *
b11110101101 6
b10111101 S
#490
b11110101110 6
b10111110 S
#491
b11111000010 *
b11110110000 6
b10111111 S
#492
b11000000 S
#493
b11111000011 *
b11110110011 6
b11000001 S
#494
b11111000101 *
b11110110100 6
b11000010 S
#495
b11111000110 *
b11110110101 6
b11000011 S
#496
b11000100 S
#497
b11111000111 *
b11110110111 6
b11000101 S
#498
b11111001001 *
b11110111001 6
b11000110 S
#499
b11110111011 6
b11000111 S
#500
b11111000111 *
b11001000 S
#501
b11111001001 *
b11110111101 6
b11001001 S
#502
b11111000111 *
b11001010 S
#503
b11110111110 6
b11001011 S
#504
b11111001000 *
b11110111111 6
b11001100 S
#505
b11111000111 *
b11001101 S
#506
b11111000010 6
b11001110 S
#507
b11001111 S
#508
b11111001100 *
b11111000011 6
b11010000 S
#509
b11111001001 *
b11111000101 6
b11010001 S
#510
b11111001100 *
b11111000110 6
b11010010 S
#511
b11111001101 *
b11010011 S
#512
b1 &
b11111000111 6
b11010100 S
0o
0p
1+"
#513
b1 "
b10 &
b11111001110 *
b11111001001 6
0w
#514
b10 "
b11111001111 *
b11010100 [
#515
b11111010000 *
b11111000111 6
b111 N
1v
#516
b11111001001 6
b1100 N
b1 y
0*"
#517
b11111001111 *
b11111000111 6
b11 N
1R
b1 c
b10 y
#518
b11111010001 *
b111 N
0R
b11010011 S
b11 y
#519
b11111001000 6
b11111100001 B
b1100 N
b100 y
#520
b11111000111 6
b1 N
1R
b10 c
b101 y
#521
b11111010011 *
b111 N
0R
b11010010 S
b110 y
#522
b11111010010 *
b11111011010 B
b1110 N
b111 y
#523
b11111010011 *
b11111001100 6
b1010 N
1R
b11 c
b1000 y
#524
b11111001001 6
b111 N
0R
b11010001 S
b1001 y
#525
b11111001100 6
b11110111001 B
b1101 N
b1010 y
#526
b11111010100 *
b11111001101 6
b1001 N
1R
b100 c
b1011 y
#527
b11111010011 *
b111 N
0R
b11010000 S
b1100 y
#528
b11111010100 *
b11111001110 6
b11101011011 B
b1011 N
b1101 y
#529
b11111001111 6
1R
b101 c
b1110 y
#530
b11111010000 6
b111 N
0R
b11001111 S
b1111 y
#531
b11111010011 *
b11100011010 B
b101 N
b10000 y
#532
b11111010010 *
b11111001111 6
b1010 N
1R
b110 c
b10001 y
#533
b11111010100 *
b11111010001 6
b111 N
0R
b11001110 S
b10010 y
#534
b11111010011 *
b11011011110 B
b1 N
b10011 y
#535
b11111010010 *
b1110 N
1R
b111 c
b10100 y
#536
b11111010011 *
b11111010011 6
b110 N
0R
b11001101 S
b10101 y
#537
b11111010010 6
b11010001001 B
b1101 N
b10110 y
#538
b11111010010 *
b11111010011 6
b1001 N
1R
b1000 c
b10111 y
#539
b11111010011 *
b110 N
0R
b11001100 S
b11000 y
#540
b11111010010 *
b11001100001 B
b1000 N
b11001 y
#541
b11111010001 *
b11111010100 6
b1 N
1R
b1001 c
b11010 y
#542
b11111010011 6
b110 N
0R
b11001011 S
b11011 y
#543
b11111010000 *
b11111010100 6
b11000100100 B
b11100 y
#544
b11111001111 *
b100 N
1R
b1010 c
b11101 y
#545
b11111001110 *
b110 N
0R
b11001010 S
b11110 y
#546
b11111001101 *
b11111010011 6
b10111110001 B
b10 N
b11111 y
#547
b11111001100 *
b11111010010 6
b1 N
1R
b1011 c
b100000 y
#548
b11111010000 *
b11111010100 6
b101 N
0R
b11001001 S
b100001 y
#549
b11111010011 6
b10111010010 B
b1111 N
b100010 y
#550
b11111010010 6
b10 N
1R
b1100 c
b100011 y
#551
b11111010011 *
b11111010011 6
b101 N
0R
b11001000 S
b100100 y
#552
b11111010001 *
b10110110010 B
b1101 N
b100101 y
#553
b11111010010 *
b11111010010 6
b10 N
1R
b1101 c
b100110 y
#554
b11111010011 *
b11111010011 6
b101 N
0R
b11000111 S
b100111 y
#555
b11111010010 *
b11111010010 6
b10110001100 B
b1011 N
b101000 y
#556
b11111010001 6
b1100 N
1R
b1110 c
b101001 y
#557
b101 N
0R
b11000110 S
b101010 y
#558
b11111010000 6
b10101111101 B
b1000 N
b101011 y
#559
b11111010011 *
b11111001111 6
b1101 N
1R
b1111 c
b101100 y
#560
b11111001110 6
b101 N
0R
b11000101 S
b101101 y
#561
b11111001101 6
b10101101001 B
b111 N
b101110 y
#562
b11111001100 6
b1001 N
1R
b10000 c
b101111 y
#563
b11111010000 6
b101 N
0R
b11000100 S
b110000 y
#564
b11111010100 *
b10101010010 B
b110 N
b110001 y
#565
b10 N
1R
b10001 c
b110010 y
#566
b11111010101 *
b11111010011 6
b101 N
0R
b11000011 S
b110011 y
#567
b11111010100 *
b11111010001 6
b10101001101 B
b110100 y
#568
b11111010010 6
b1101 N
1R
b10010 c
b110101 y
#569
b11111010011 6
b101 N
0R
b11000010 S
b110110 y
#570
b11111010010 6
b10100111111 B
b100 N
b110111 y
#571
b1111 N
1R
b10011 c
b111000 y
#572
b11111010101 *
b101 N
0R
b11000001 S
b111001 y
#573
b11111010100 *
b10100111011 B
b11 N
b111010 y
#574
b11111010101 *
b11111010011 6
b1011 N
1R
b10100 c
b111011 y
#575
b101 N
0R
b11000000 S
b111100 y
#576
b10100111001 B
b11 N
b111101 y
#577
b1001 N
1R
b10101 c
b111110 y
#578
b101 N
0R
b10111111 S
b111111 y
#579
b11111010100 6
b10100110100 B
b11 N
b1000000 y
#580
b11111010110 *
b100 N
1R
b10110 c
b1000001 y
#581
b11111010100 *
b11111010101 6
b101 N
0R
b10111110 S
b1000010 y
#582
b11111010101 *
b11111010100 6
b10100111000 B
b11 N
b1000011 y
#583
b11111010100 *
b1000 N
1R
b10111 c
b1000100 y
#584
b11111010011 *
b101 N
0R
b10111101 S
b1000101 y
#585
b11111010010 *
b10100111011 B
b11 N
b1000110 y
#586
b1011 N
1R
b11000 c
b1000111 y
#587
b11111010000 *
b11111010101 6
b101 N
0R
b10111100 S
b1001000 y
#588
b11111010100 6
b10100111110 B
b11 N
b1001001 y
#589
b11111010101 *
b11111010101 6
b1110 N
1R
b11001 c
b1001010 y
#590
b11111010001 *
b101 N
0R
b10111011 S
b1001011 y
#591
b11111010101 *
b10101000110 B
b11 N
b1001100 y
#592
b110 N
1R
b11010 c
b1001101 y
#593
b11111010100 *
b101 N
0R
b10111010 S
b1001110 y
#594
b11111010110 *
b10101001100 B
b100 N
b1001111 y
#595
b11111010100 *
b11111010110 6
b1100 N
1R
b11011 c
b1010000 y
#596
b11111010100 6
b101 N
0R
b10111001 S
b1010001 y
#597
b11111010101 6
b10101010100 B
b100 N
b1010010 y
#598
b11111010101 *
b11111010100 6
1R
b11100 c
b1010011 y
#599
b11111010011 6
b101 N
0R
b10111000 S
b1010100 y
#600
b11111010100 *
b11111010010 6
b10101011110 B
b1010101 y
#601
b1110 N
1R
b11101 c
b1010110 y
#602
b11111010101 *
b11111010000 6
b101 N
0R
b10110111 S
b1010111 y
#603
b11111010110 *
b10101101000 B
b1011000 y
#604
b11111010101 6
b1000 N
1R
b11110 c
b1011001 y
#605
b11111010101 *
b11111010001 6
b101 N
0R
b10110110 S
b1011010 y
#606
b11111010101 6
b10101110010 B
b110 N
b1011011 y
#607
b10 N
1R
b11111 c
b1011100 y
#608
b11111010110 *
b11111010100 6
b101 N
0R
b10110101 S
b1011101 y
#609
b11111010101 *
b11111010110 6
b10101111101 B
b111 N
b1011110 y
#610
b11111010110 *
b11111010100 6
b1101 N
1R
b100000 c
b1011111 y
#611
b11111010111 *
b101 N
0R
b10110100 S
b1100000 y
#612
b10110001000 B
b111 N
b1100001 y
#613
b11111010101 6
b1000 N
1R
b100001 c
b1100010 y
#614
b101 N
0R
b10110011 S
b1100011 y
#615
b11111010110 *
b11111010100 6
b10110010100 B
b1000 N
b1100100 y
#616
b100 N
1R
b100010 c
b1100101 y
#617
b11111010101 6
b101 N
0R
b10110010 S
b1100110 y
#618
b11111010111 *
b11111010110 6
b10110100000 B
b1001 N
b1100111 y
#619
b0 N
1R
b100011 c
b1101000 y
#620
b11111010101 6
b101 N
0R
b10110001 S
b1101001 y
#621
b11111011110 B
b1010 N
b1101010 y
#622
b11111010101 *
b1110 N
1R
b100100 c
b1101011 y
#623
b11111010100 *
b11111010110 6
b111 N
0R
b10110000 S
b1101100 y
#624
b11111010011 *
b11111010101 6
b11111010101 B
b1101 N
b1101101 y
#625
b11111010110 6
b101 N
1R
b100101 c
b1101110 y
#626
b11111010010 *
b11111010111 6
b111 N
0R
b10101111 S
b1101111 y
#627
b11110101011 B
b1101 N
b1110000 y
#628
b1011 N
1R
b100110 c
b1110001 y
#629
b11111010001 *
b111 N
0R
b10101110 S
b1110010 y
#630
b11111010101 *
b11111010110 6
b11101000111 B
b1010 N
b1110011 y
#631
b11111010010 *
b111 N
1R
b100111 c
b1110100 y
#632
b11111010101 *
0R
b10101101 S
b1110101 y
#633
b11111010100 *
b11111010111 6
b11100010011 B
b100 N
b1110110 y
#634
b11111010110 *
b11 N
1R
b101000 c
b1110111 y
#635
b111 N
0R
b10101100 S
b1111000 y
#636
b11011001011 B
b1 N
b1111001 y
#637
b11111010111 *
b11111010101 6
b1011 N
1R
b101001 c
b1111010 y
#638
b11111010110 *
b11111010100 6
b110 N
0R
b10101011 S
b1111011 y
#639
b11111010011 6
b11001111110 B
b1100 N
b1111100 y
#640
b11111010111 *
b1110 N
1R
b101010 c
b1111101 y
#641
b11111010101 *
b11111010010 6
b110 N
0R
b10101010 S
b1111110 y
#642
b11111010110 *
b11001010001 B
b111 N
b1111111 y
#643
b11111010111 *
b1 N
1R
b101011 c
b10000000 y
#644
b11111010001 6
b110 N
0R
b10101001 S
b10000001 y
#645
b11111010101 6
b11000001101 B
b101 N
b10000010 y
#646
b11111010010 6
b1101 N
1R
b101100 c
b10000011 y
#647
b11111010101 6
b110 N
0R
b10101000 S
b10000100 y
#648
b11111011000 *
b11111010100 6
b10111100010 B
b0 N
b10000101 y
#649
b11111010110 6
b10 N
1R
b101101 c
b10000110 y
#650
b11111010111 *
b101 N
0R
b10100111 S
b10000111 y
#651
b10110110110 B
b1110 N
b10001000 y
#652
b11111010111 6
b110 N
1R
b101110 c
b10001001 y
#653
b11111010110 *
b11111010110 6
b101 N
0R
b10100110 S
b10001010 y
#654
b11111010111 *
b10110011110 B
b1011 N
b10001011 y
#655
b11111010111 6
b1110 N
1R
b101111 c
b10001100 y
#656
b11111010101 6
b101 N
0R
b10100101 S
b10001101 y
#657
b11111010110 *
b11111010110 6
b10101101110 B
b1001 N
b10001110 y
#658
b11111010111 *
b11111010111 6
b1110 N
1R
b110000 c
b10001111 y
#659
b11111010110 *
b101 N
0R
b10100100 S
b10010000 y
#660
b11111010111 *
b10101011101 B
b110 N
b10010001 y
#661
b11111010110 *
b1101 N
1R
b110001 c
b10010010 y
#662
b11111010100 *
b101 N
0R
b10100011 S
b10010011 y
#663
b11111010110 *
b11111011000 6
b10101001000 B
b10010100 y
#664
b11111010101 *
b1000 N
1R
b110010 c
b10010101 y
#665
b11111010011 *
b11111010111 6
b101 N
0R
b10100010 S
b10010110 y
#666
b10100110000 B
b100 N
b10010111 y
#667
b0 N
1R
b110011 c
b10011000 y
#668
b11111010001 *
b11111010110 6
b101 N
0R
b10100001 S
b10011001 y
#669
b11111010111 6
b10100101100 B
b11 N
b10011010 y
#670
b11111010110 *
b1100 N
1R
b110100 c
b10011011 y
#671
b11111010011 *
b101 N
0R
b10100000 S
b10011100 y
#672
b11111010101 *
b11111010110 6
b10100011100 B
b10 N
b10011101 y
#673
b11111010111 *
b11111010111 6
b1100 N
1R
b110101 c
b10011110 y
#674
b11111010110 *
b11111010110 6
b101 N
0R
b10011111 S
b10011111 y
#675
b11111010111 *
b11111010111 6
b10100011011 B
b1 N
b10100000 y
#676
b11111010110 6
b1011 N
1R
b110110 c
b10100001 y
